<?xml version="1.0" encoding="utf-8"?>
<!-- Generator: Adobe Illustrator 19.0.0, SVG Export Plug-In . SVG Version: 6.00 Build 0)  -->
<svg version="1.1" id="Layer_1" xmlns="http://www.w3.org/2000/svg" xmlns:xlink="http://www.w3.org/1999/xlink" x="0px" y="0px"
	 viewBox="0 0 1116.4 1070.2" style="enable-background:new 0 0 1116.4 1070.2;" xml:space="preserve">
<style type="text/css">
	.st0{clip-path:url(#SVGID_2_);fill:#CDD1E0;}
	.st1{clip-path:url(#SVGID_2_);fill:#AEB4C4;}
	.st2{clip-path:url(#SVGID_2_);fill:#8F97AA;}
	.st3{clip-path:url(#SVGID_2_);fill:#F8F9FB;}
	.st4{clip-path:url(#SVGID_2_);fill-rule:evenodd;clip-rule:evenodd;fill:#CDD1E0;}
	.st5{clip-path:url(#SVGID_2_);fill-rule:evenodd;clip-rule:evenodd;fill:#5A6771;}
	.st6{clip-path:url(#SVGID_2_);fill-rule:evenodd;clip-rule:evenodd;fill:#4A4F55;}
	.st7{clip-path:url(#SVGID_2_);fill-rule:evenodd;clip-rule:evenodd;fill:#303E48;}
	.st8{clip-path:url(#SVGID_2_);fill-rule:evenodd;clip-rule:evenodd;fill:#F42434;}
	.st9{clip-path:url(#SVGID_2_);fill-rule:evenodd;clip-rule:evenodd;fill:#DDE4ED;}
	.st10{clip-path:url(#SVGID_2_);fill-rule:evenodd;clip-rule:evenodd;fill:#292935;}
	.st11{clip-path:url(#SVGID_2_);fill-rule:evenodd;clip-rule:evenodd;fill:#F0F3FF;}
	.st12{clip-path:url(#SVGID_2_);fill-rule:evenodd;clip-rule:evenodd;fill:#AEB4C4;}
	.st13{clip-path:url(#SVGID_2_);fill-rule:evenodd;clip-rule:evenodd;fill:#8F97AA;}
	.st14{clip-path:url(#SVGID_2_);fill-rule:evenodd;clip-rule:evenodd;fill:#191919;}
	.st15{clip-path:url(#SVGID_2_);fill-rule:evenodd;clip-rule:evenodd;fill:#272A39;}
	.st16{clip-path:url(#SVGID_2_);fill-rule:evenodd;clip-rule:evenodd;fill:#606685;}
	.st17{clip-path:url(#SVGID_4_);fill:url(#SVGID_5_);}
	.st18{clip-path:url(#SVGID_7_);fill-rule:evenodd;clip-rule:evenodd;fill:#FDFCFA;}
	.st19{clip-path:url(#SVGID_7_);fill-rule:evenodd;clip-rule:evenodd;fill:#C90000;}
	.st20{clip-path:url(#SVGID_9_);fill:url(#SVGID_10_);}
	.st21{clip-path:url(#SVGID_12_);fill-rule:evenodd;clip-rule:evenodd;fill:#FFFFFF;}
	.st22{clip-path:url(#SVGID_12_);fill-rule:evenodd;clip-rule:evenodd;fill:#CDD1E0;}
	.st23{clip-path:url(#SVGID_12_);fill-rule:evenodd;clip-rule:evenodd;fill:#3F3F51;}
	.st24{clip-path:url(#SVGID_12_);fill-rule:evenodd;clip-rule:evenodd;fill:#6E6E84;}
	.st25{clip-path:url(#SVGID_12_);fill-rule:evenodd;clip-rule:evenodd;fill:#6F6F6F;}
	.st26{clip-path:url(#SVGID_12_);fill-rule:evenodd;clip-rule:evenodd;fill:#DDE4ED;}
	.st27{clip-path:url(#SVGID_12_);fill-rule:evenodd;clip-rule:evenodd;fill:#A2A9AE;}
	.st28{clip-path:url(#SVGID_12_);fill-rule:evenodd;clip-rule:evenodd;fill:#DFE2ED;}
	.st29{clip-path:url(#SVGID_12_);fill:#CDD1E0;}
	.st30{clip-path:url(#SVGID_12_);fill:#FFB0B0;}
	.st31{clip-path:url(#SVGID_12_);fill-rule:evenodd;clip-rule:evenodd;fill:#FCBEBE;}
	.st32{clip-path:url(#SVGID_12_);fill-rule:evenodd;clip-rule:evenodd;fill:#292935;}
	.st33{clip-path:url(#SVGID_12_);fill-rule:evenodd;clip-rule:evenodd;fill:#191214;}
	.st34{clip-path:url(#SVGID_12_);fill:#3F3F51;}
	.st35{clip-path:url(#SVGID_12_);fill:#343442;}
	.st36{clip-path:url(#SVGID_12_);fill:#4B4B5B;}
	.st37{clip-path:url(#SVGID_12_);fill-rule:evenodd;clip-rule:evenodd;fill:#FFA8A1;}
	.st38{clip-path:url(#SVGID_12_);fill:#D7D9E2;}
	.st39{clip-path:url(#SVGID_12_);fill:#8F97AA;}
	.st40{clip-path:url(#SVGID_12_);fill:#E8A476;}
	.st41{clip-path:url(#SVGID_12_);fill:#FFA8A1;}
	.st42{clip-path:url(#SVGID_12_);fill:#231202;}
	.st43{clip-path:url(#SVGID_12_);fill:#292935;}
	.st44{clip-path:url(#SVGID_12_);fill:#2E2E3A;}
	.st45{clip-path:url(#SVGID_12_);fill:#33333F;}
	.st46{clip-path:url(#SVGID_12_);fill:#FCBEBE;}
	.st47{clip-path:url(#SVGID_12_);fill:#F0F3FF;}
</style>
<g>
	<defs>
		<rect id="SVGID_1_" y="0" width="1116.4" height="1070.2"/>
	</defs>
	<clipPath id="SVGID_2_">
		<use xlink:href="#SVGID_1_"  style="overflow:visible;"/>
	</clipPath>
	<path class="st0" d="M578.6,1065.8l530.1-306.1c11.3-6.5,9.9-17.9-3.2-25.4L581.8,431.9c-13-7.5-32.8-8.3-44-1.8L7.6,736.2
		c-11.3,6.5-9.9,17.9,3.2,25.4L534.6,1064C547.6,1071.5,567.3,1072.3,578.6,1065.8"/>
	<path class="st1" d="M0,695.1l11.5-6.4h1091.1l13.8,7.7l0,17.9c0.1,4.2-2.4,8.2-7.6,11.2l-530.1,306.1c-11.3,6.5-31,5.7-44-1.8
		L10.8,727.4C3.6,723.2,0,717.9,0,712.9C0,708.8,0,695.1,0,695.1"/>
	<path class="st2" d="M0,695.1l11.5-6.4h549.7v347.2c-9.1,0.3-19-1.7-26.6-6.1L10.8,727.4C3.6,723.2,0,717.9,0,712.9
		C0,708.8,0,695.1,0,695.1"/>
	<path class="st3" d="M578.6,1013.6l530.1-306.1c11.3-6.5,9.9-17.9-3.2-25.4L581.8,379.6c-13-7.5-32.8-8.3-44-1.8L7.6,683.9
		c-11.3,6.5-9.9,17.9,3.2,25.4l523.8,302.4C547.6,1019.3,567.3,1020.1,578.6,1013.6"/>
	<path class="st4" d="M716.1,543.9L277.2,797.3c-3.4,1.9-7.5,1.9-10.9,0l-158.7-91.6c-7.3-4.2-7.3-14.7,0-18.9l438.9-253.4
		c3.4-1.9,7.5-1.9,10.9,0L716.1,525C723.4,529.2,723.4,539.7,716.1,543.9"/>
	<polygon class="st5" points="719,268.2 727.3,273 743.6,263.6 735.2,258.8 	"/>
	<polygon class="st5" points="694,253.7 702.3,258.5 718.5,249.1 710.2,244.3 	"/>
	<polygon class="st5" points="669,239.2 677.3,244 693.5,234.7 685.2,229.8 	"/>
	<polygon class="st5" points="643.9,224.8 653.1,219.1 668.5,220.2 652.2,229.6 	"/>
	<path class="st6" d="M256.2,529.7c0,5.9-1.8,9.8-5.4,11.9c-3.6,2.1-7.9,1.7-13-1.3c-5.1-2.9-9.4-7.5-13-13.8
		c-3.6-6.2-5.4-12.3-5.4-18.1c0-5.9,1.8-9.8,5.4-11.9c3.6-2.1,8-1.6,13,1.3c5.1,2.9,9.4,7.5,13,13.7
		C254.4,517.8,256.2,523.9,256.2,529.7"/>
	<rect x="214" y="499.5" transform="matrix(0.866 -0.5 0.5 0.866 -232.3638 183.8224)" class="st6" width="25.8" height="52"/>
	<path class="st7" d="M244.2,536.9c0,5.9-1.8,9.8-5.4,11.9c-3.6,2.1-7.9,1.7-13-1.3c-5.1-2.9-9.4-7.5-13-13.8
		c-3.6-6.2-5.4-12.3-5.4-18.1s1.8-9.8,5.4-11.9c3.6-2.1,8-1.6,13,1.3c5.1,2.9,9.4,7.5,13,13.7C242.4,525,244.2,531.1,244.2,536.9"/>
	<path class="st8" d="M240.4,539c0,5.9-1.8,9.8-5.4,11.9c-3.6,2.1-7.9,1.7-13-1.3c-5.1-2.9-9.4-7.5-13-13.8
		c-3.6-6.2-5.4-12.3-5.4-18.1c0-5.9,1.8-9.8,5.4-11.9c3.6-2.1,8-1.6,13,1.3c5.1,2.9,9.4,7.5,13,13.7
		C238.6,527,240.4,533.1,240.4,539"/>
	<path class="st9" d="M220.7,550.2c0,5.9-1.8,9.8-5.4,11.9c-3.6,2.1-7.9,1.7-13-1.3c-5.1-2.9-9.4-7.5-13-13.8
		c-3.6-6.2-5.4-12.3-5.4-18.1c0-5.9,1.8-9.8,5.4-11.9c3.6-2.1,8-1.6,13,1.3c5.1,2.9,9.4,7.5,13,13.7
		C218.9,538.2,220.7,544.3,220.7,550.2"/>
	<rect x="178.5" y="519.9" transform="matrix(0.866 -0.5 0.5 0.866 -247.3353 168.8164)" class="st9" width="25.8" height="52"/>
	<path class="st8" d="M199,562.8c0,5.9-1.8,9.8-5.4,11.9c-3.6,2.1-7.9,1.7-13-1.3c-5.1-2.9-9.4-7.5-13-13.8
		c-3.6-6.2-5.4-12.3-5.4-18.1c0-5.9,1.8-9.8,5.4-11.9c3.6-2.1,8-1.6,13,1.3c5.1,2.9,9.4,7.5,13,13.7
		C197.2,550.9,199,556.9,199,562.8"/>
	<rect x="159" y="561.2" transform="matrix(0.866 -0.5 0.5 0.866 -256.5143 175.1062)" class="st8" width="79" height="10"/>
	<path class="st10" d="M745.8,13.4c3.5,1.4,5.5,6,6,13.8v325.1L190,675.6V344.2c0.2-4.4,2.1-8.1,5.8-11.3l318-185.8L735.4,16.9
		C739.9,14.6,743.4,13.4,745.8,13.4"/>
	<path class="st11" d="M195.9,332.9l-26.6-14l543.1-317c4-2.5,8-2.5,11.9,0l21.6,11.5c-2.4,0-5.9,1.2-10.5,3.5L513.8,147.1
		L195.9,332.9z M190,759.1v-83.5l561.8-323.4c0.1,3.7,0.1,7.2,0.2,10.5c0.1,3.3,0.1,9.1,0.1,17.3c0,8.2,0.1,17.1,0.2,26.7
		c0.1,9.5-0.1,17.2-0.5,23c-0.4,4-1.6,7.7-3.6,11.2c-1,1.6-2.2,2.9-3.8,4c-8.1,6-16.7,11.5-25.6,16.5c-11.8,6.4-23.4,12.9-35.1,19.7
		c-10.2,6-20.4,11.9-30.7,17.9c-10.9,6.2-21.7,12.5-32.6,18.9c-10.3,6-20.5,12.1-30.8,18.1c-1.4,0.8-2.8,1.7-4.2,2.5
		c-2.4,1.4-4.8,2.8-7.2,4.2c-8.5,4.9-16.9,9.8-25.3,14.6L316.7,693l-1.6,1c-2.5,1.4-7.4,4.2-14.5,8.5l-7.6,4.4
		c-6.3,3.6-12.6,7.3-18.8,10.9c-9.3,5.5-18.6,10.9-28,16.3c-9.5,5.5-19.1,11-28.7,16.5c-5.3,3.2-10.7,6.1-16.3,8.9
		C197.3,761.3,193.6,761.2,190,759.1"/>
	<path class="st12" d="M169.2,318.9l26.6,14c-3.7,3.2-5.6,6.9-5.8,11.3L162.3,329C161.9,324.1,164.2,320.8,169.2,318.9 M603.9,542.7
		L331.7,700.2l-15-7.2l236.4-135.7c8.4-4.8,16.9-9.7,25.3-14.6c2.4-1.4,4.8-2.8,7.2-4.2c1.4-0.8,2.8-1.7,4.2-2.5L603.9,542.7z
		 M347,707.5l273.5-156.8v29.3L347,736.9V707.5z"/>
	<path class="st13" d="M190,675.6v83.5c-3.4-2.1-6.8-4.1-10.3-6.1c-3.8-2.3-7.4-4.7-10.9-7.4c-2.7-2-4.3-4.7-4.6-8.2
		c-0.6-6.3-0.9-12.6-0.8-18.9c0-7.4,0-14.8,0-22.1c0-7.3-0.1-14.2-0.1-20.8c0-6.5,0-13.4-0.1-20.5c0-7.1-0.1-14.7-0.1-22.8
		c0-8.1-0.1-15.4-0.1-21.9c-0.1-7.2-0.2-14.4-0.2-21.7c0-7.7,0-15.5,0-23.3c0-5.5-0.1-11-0.1-16.5c0-5.7-0.1-11.5-0.1-17.3
		c0-6-0.1-12.1-0.1-18.1c0-6.3-0.1-12.6-0.1-18.8c0-6.5-0.1-13-0.1-19.5c0-6.8-0.1-13.6-0.1-20.4c-0.1-7-0.1-14.1-0.1-21.2v-21.8
		v-22.7c0-7.8-0.1-15.7-0.1-23.5c0-8.1-0.1-16.2-0.1-24.2c0-4.2,0-8.3-0.1-12.5l27.8,15.2V675.6z M316.7,693l15,7.2l15.3,7.4v29.3
		l-54.1-30.1l7.6-4.4c7.2-4.2,12-7.1,14.5-8.5L316.7,693z"/>
	<polygon class="st9" points="620.5,550.8 347,707.5 331.7,700.2 603.9,542.7 	"/>
	<polygon class="st14" points="172,400.7 177.9,405.6 177.9,611.8 172,607.3 	"/>
	<path class="st15" d="M230.2,604.1c1.1-1.9,2.5-3.4,4.1-4.3l482-278.3c1.6-0.9,3-1.1,4.1-0.4c1.1,0.6,1.7,1.9,1.7,3.8
		c0,1.9-0.6,3.8-1.7,5.7c-1.1,1.9-2.5,3.4-4.1,4.3l-482,278.3c-1.6,0.9-3,1.1-4.1,0.4c-1.1-0.6-1.7-1.9-1.7-3.8
		C228.5,607.9,229.1,606,230.2,604.1"/>
	<path class="st16" d="M230.2,604c1.1-1.9,2.5-3.4,4.1-4.3L531.8,428c1.6-0.9,3-1.1,4.1-0.4c1.1,0.6,1.7,1.9,1.7,3.8
		s-0.6,3.8-1.7,5.7c-1.1,1.9-2.5,3.4-4.1,4.3L234.4,613.1c-1.6,0.9-3,1.1-4.1,0.4c-1.1-0.6-1.7-1.9-1.7-3.8
		C228.6,607.9,229.1,606,230.2,604"/>
</g>
<g>
	<defs>
		<path id="SVGID_3_" d="M413.1,496.5L234.3,599.7c-1.6,0.9-3,2.4-4.1,4.3c-1.1,1.9-1.7,3.9-1.7,5.7c0,1.9,0.6,3.1,1.7,3.8
			c1.1,0.6,2.5,0.5,4.1-0.4l178.8-103.2c1.6-0.9,3-2.4,4.1-4.3c1.1-1.9,1.7-3.9,1.7-5.7c0-1.9-0.6-3.1-1.7-3.8
			c-0.5-0.3-1-0.4-1.5-0.4C414.9,495.7,414,496,413.1,496.5"/>
	</defs>
	<clipPath id="SVGID_4_">
		<use xlink:href="#SVGID_3_"  style="overflow:visible;"/>
	</clipPath>
	
		<linearGradient id="SVGID_5_" gradientUnits="userSpaceOnUse" x1="8.015659e-007" y1="1070.2294" x2="1" y2="1070.2294" gradientTransform="matrix(190.3622 0 0 -190.3622 228.5208 204286.0938)">
		<stop  offset="0" style="stop-color:#FF3F3F"/>
		<stop  offset="0.4673" style="stop-color:#FF3F65"/>
		<stop  offset="0.9768" style="stop-color:#FF5567"/>
		<stop  offset="1" style="stop-color:#FF5567"/>
	</linearGradient>
	<rect x="228.5" y="495.7" class="st17" width="190.4" height="118.5"/>
</g>
<g>
	<defs>
		<rect id="SVGID_6_" y="0" width="1116.4" height="1070.2"/>
	</defs>
	<clipPath id="SVGID_7_">
		<use xlink:href="#SVGID_6_"  style="overflow:visible;"/>
	</clipPath>
	<path class="st18" d="M690.1,362.5c-0.4,0-0.8,0.1-1.2,0.3c-0.4,0.3-0.8,0.6-1.2,1.1c-0.7,0.9-1.2,1.8-1.6,2.6
		c-1,2.1-1,3.6,0.1,4.4c0.3,0.3,0.7,0.4,1.1,0.5c0.6,0.1,1.2,0,1.7-0.2c0.5-0.4,1.1-0.9,1.7-1.7c0.4-0.6,0.8-1.2,1.1-1.8
		c1-2,1-3.5,0.1-4.5C691.4,362.8,690.8,362.6,690.1,362.5 M691.8,356.6c0.6-0.8,1.3-1.1,1.9-1.1l-0.3,5.5c1,0.1,2,0.1,3.1,0.1
		c0.5,0.1,0.9,0.4,1.2,0.9c-0.2,0.5-0.5,1-0.8,1.5c-0.4,0.5-0.7,1-1.1,1.6c-0.8,1-1.5,2-2.3,3c0,1.2,0.1,2.5,0.2,3.7
		c0.1,0.7-0.2,1.5-0.7,2.2l-4.1-0.2v0l-4.1,4.9c-0.5-0.1-0.8-0.6-0.7-1.4c0.1-1.3,0.1-2.6,0.2-3.9c-0.8-0.1-1.5-0.2-2.3-0.3
		c-0.4-0.1-0.8-0.2-1.1-0.3c-0.3-0.2-0.5-0.4-0.8-0.6c0.3-0.9,0.7-1.6,1.2-2.3c1-1.2,2-2.4,3.1-3.6l-0.3-5.2
		c0.6-0.8,1.3-1.1,1.9-1.1c0.9,0,1.8,0.2,2.8,0.6c0,0,0.1,0,0.1-0.1v0c0,0,0.1,0,0.1,0C690,359,690.9,357.7,691.8,356.6"/>
	<path class="st18" d="M229.3,624.6c3,0,7.3,0.1,13.1,0.4c-2.9,3.4-7.3,8.6-13.1,15.6V624.6z"/>
	<path class="st18" d="M734.1,339l-3,1.8l-0.5-3l-2.4,1.3l0.1-3l5.8-3.3V339z M719.8,343.8l-2.8,2.5l-0.2,2.8l-2.5,1.4v-6.2l5.3-3
		L719.8,343.8z M728.3,349.5l2.5-1.5l0.3-3.4l3-1.6v6l-5.8,3.3L728.3,349.5z M716.8,352.9l0.2,3l2.7-1.4l-0.1,2.8l-5.3,3.1l0.1-6.1
		L716.8,352.9z"/>
	<path class="st18" d="M267.9,607.9l0.8-1.4c0.6,0.2,0.9,0.6,1.2,1.3c0.2,0.7,0.2,1.5,0,2.4c-0.2,0.9-0.5,1.8-1.1,2.8l-0.7-0.5
		c0.4-0.6,0.6-1.3,0.7-1.9c0.1-0.7,0.1-1.2,0-1.7C268.6,608.4,268.3,608.1,267.9,607.9 M270.2,602.1l0.4-1.2c1.5-0.3,2.7,0,3.6,0.9
		c0.9,0.9,1.4,2.3,1.4,4c0,1.8-0.4,3.7-1.3,5.7c-0.9,2-2.1,3.7-3.5,5.2l-0.4-0.8c1.3-1.3,2.3-2.8,3.1-4.5c0.8-1.7,1.1-3.4,1.1-5
		c0-1.5-0.5-2.7-1.3-3.5C272.5,602.1,271.5,601.8,270.2,602.1 M272.4,605.3c0.5,1.2,0.5,2.7,0.1,4.4c-0.5,1.8-1.3,3.4-2.5,4.9
		l-0.6-0.7c1-1.2,1.7-2.6,2.1-4c0.4-1.4,0.4-2.6-0.1-3.6c-0.4-0.9-1.1-1.4-2.1-1.4l0.5-1.3C271,603.6,271.9,604.1,272.4,605.3
		 M264.1,608.7c0.7-1.1,1.6-2.7,2.6-4.7c-0.1,4.4-0.2,9.1-0.1,14c-1.2-1-2-1.6-2.5-1.8c-1.1-0.4-2.2-0.3-3.4,0.3l-0.1-4
		C261.9,611.5,263,610.3,264.1,608.7"/>
	<path class="st18" d="M284.9,608.3c-0.7,0.5-1.4,0.5-1.9,0.2c-0.9-0.5-1.3-2-1.3-4.5c0-2.5,0.4-4.5,1.3-6.1c0.5-0.9,1.2-1.6,1.9-2
		c0.7-0.4,1.4-0.5,1.9-0.2c0.9,0.5,1.3,2.1,1.3,4.5c0,2.5-0.5,4.5-1.3,6.1C286.2,607.2,285.6,607.9,284.9,608.3 M287,601
		c0-2.1-0.3-3.4-1-3.8c-0.3-0.2-0.7-0.2-1.1,0.1c-0.5,0.3-0.8,0.7-1.2,1.2c-0.7,1.2-1,2.9-1,5c0,2.1,0.3,3.3,1,3.8
		c0.3,0.2,0.7,0.1,1.2-0.1c0.4-0.2,0.8-0.6,1.1-1.2C286.6,604.7,287,603,287,601 M322,582.5l3.3-1.9v-5.4L322,582.5z M296.1,601.8
		c-0.7,0.5-1.4,0.5-1.9,0.2c-0.9-0.5-1.3-2-1.3-4.5c0-2.5,0.4-4.5,1.3-6.1c0.5-0.9,1.2-1.6,1.9-2c0.7-0.4,1.4-0.5,1.9-0.2
		c0.9,0.5,1.3,2.1,1.3,4.5c0,2.5-0.5,4.5-1.3,6.1C297.5,600.8,296.8,601.4,296.1,601.8 M290.4,603.3l0.6-0.1l0.2,0.5l-0.2,0.8
		l-0.6,0.6l-0.6,0.1l-0.2-0.5l0.2-0.8L290.4,603.3z M290.4,596.4l0.6,0l0.2,0.5l-0.2,0.8l-0.6,0.6l-0.6,0l-0.2-0.5l0.2-0.7
		L290.4,596.4z M298.2,594.5c0-2.1-0.3-3.4-1-3.8c-0.3-0.2-0.7-0.2-1.1,0.1c-0.5,0.3-0.8,0.7-1.2,1.2c-0.7,1.2-1,2.9-1,5
		s0.3,3.3,1,3.8c0.3,0.2,0.7,0.1,1.2-0.1c0.4-0.2,0.8-0.6,1.1-1.2C297.9,598.2,298.2,596.5,298.2,594.5 M306,584.6
		c0.9,0.5,1.3,2.1,1.3,4.5c0,2.5-0.5,4.5-1.3,6.1c-0.5,0.9-1.2,1.5-1.9,1.9c-0.7,0.5-1.4,0.5-1.9,0.2c-0.9-0.5-1.3-2-1.3-4.5
		c0-2.5,0.4-4.5,1.3-6.1c0.5-0.9,1.2-1.6,1.9-2C304.9,584.4,305.5,584.3,306,584.6 M306.3,589.8c0-2.1-0.3-3.4-1-3.8
		c-0.3-0.2-0.7-0.2-1.1,0.1c-0.5,0.3-0.8,0.7-1.2,1.2c-0.7,1.2-1,2.9-1,5c0,2.1,0.3,3.3,1,3.8c0.3,0.2,0.7,0.1,1.2-0.1
		c0.4-0.2,0.8-0.6,1.1-1.2C305.9,593.5,306.3,591.9,306.3,589.8 M316.5,577.8c0.1-0.2,0.3-0.3,0.4-0.4c0.1-0.1,0.2-0.1,0.4,0
		c0.1,0.1,0.2,0.3,0.2,0.4l-0.1,0.3l-4.3,14.8c0,0,0,0.1-0.1,0.2c-0.1,0.2-0.3,0.3-0.4,0.4c-0.1,0.1-0.2,0.1-0.4,0
		c-0.1,0-0.1-0.2-0.2-0.3c0-0.1,0-0.2,0.1-0.3l4.3-14.8C316.4,578,316.5,578,316.5,577.8 M325.8,572.3c0.1-0.1,0.2-0.1,0.4,0
		c0.1,0.1,0.2,0.3,0.2,0.4v7.4l1.1-0.6c0.1,0,0.2-0.1,0.4,0c0.1,0.1,0.2,0.3,0.2,0.4c0,0.1-0.1,0.3-0.2,0.5
		c-0.1,0.1-0.2,0.3-0.4,0.4l-1.1,0.6v2.4c0,0.1-0.1,0.3-0.2,0.6c-0.1,0.2-0.3,0.3-0.4,0.3c-0.1,0.1-0.2,0.1-0.4,0.1
		c-0.1-0.1-0.2-0.3-0.2-0.4v-2.4l-4.3,2.5c-0.1,0.1-0.2,0.1-0.4,0c-0.1,0-0.1-0.2-0.2-0.3c0-0.1,0-0.3,0.1-0.4l4.8-10.8L325.8,572.3
		z M331,580.1l0.2,0.5l-0.2,0.8l-0.6,0.6l-0.6,0.1l-0.2-0.5l0.2-0.8l0.6-0.6L331,580.1z M331.2,573.8l-0.2,0.8l-0.6,0.6l-0.6,0
		l-0.2-0.5l0.2-0.7l0.6-0.6l0.6,0L331.2,573.8z M337.5,571c0.4-0.7,0.6-1.4,0.6-2.1c0-0.7-0.2-1.1-0.6-1.3c-0.4-0.3-0.9-0.2-1.5,0.1
		c-0.6,0.3-1.1,0.9-1.5,1.6c-0.4,0.7-0.6,1.4-0.6,2.1c0,0.1-0.1,0.3-0.2,0.5c-0.1,0.2-0.3,0.3-0.4,0.4c-0.1,0.1-0.2,0.1-0.4,0
		c-0.1-0.1-0.2-0.2-0.2-0.3c0-1,0.3-2.1,0.9-3.1c0.7-1.1,1.4-1.9,2.3-2.4c0.9-0.5,1.6-0.6,2.3-0.2c0.6,0.4,0.9,1.1,0.9,2.1
		c0,1.1-0.3,2.2-0.9,3.2l-3.7,7l4.1-2.4c0.1-0.1,0.2-0.1,0.4-0.1c0.1,0,0.1,0.2,0.2,0.3c0,0.1-0.1,0.3-0.2,0.6
		c-0.2,0.2-0.3,0.3-0.4,0.4l-5.3,3.1c-0.1,0.1-0.2,0.1-0.4,0.1c-0.1-0.1-0.2-0.3-0.2-0.4c0-0.1,0.1-0.3,0.2-0.5L337.5,571z
		 M346.8,560.2c0.1-0.1,0.2-0.1,0.4-0.1c0.1,0.1,0.2,0.3,0.2,0.4c0,0.1-0.1,0.3-0.2,0.5c-0.2,0.2-0.3,0.4-0.4,0.4l-4.3,2.5v3
		l1.9-1.1c0.9-0.5,1.8-0.6,2.4-0.2c0.7,0.4,1.1,1.1,1.1,2.2c0,1.1-0.4,2.3-1.1,3.5c-0.7,1.2-1.5,2-2.4,2.6c-0.9,0.6-1.8,0.7-2.5,0.3
		c-0.7-0.3-1-1.1-1-2.3c0-0.1,0.1-0.3,0.2-0.5c0.1-0.2,0.3-0.3,0.4-0.4c0.1-0.1,0.2-0.1,0.4,0c0.1,0,0.1,0.2,0.2,0.3
		c0,0.8,0.2,1.3,0.7,1.6c0.5,0.2,1.1,0.2,1.7-0.2c0.7-0.3,1.2-0.9,1.7-1.8c0.5-0.8,0.7-1.6,0.7-2.4c0-0.8-0.2-1.3-0.7-1.6
		c-0.5-0.2-1.1-0.2-1.7,0.2l-2.4,1.4c-0.1,0.1-0.2,0.1-0.4,0c-0.1,0-0.1-0.2-0.2-0.3V564c0-0.1,0.1-0.3,0.2-0.6
		c0.1-0.2,0.3-0.3,0.4-0.4L346.8,560.2z"/>
	<path class="st19" d="M546.8,281.8c0,26.4-8.1,53.7-24.3,81.7c-16.2,28.1-35.7,48.7-58.6,62c-22.9,13.2-42.5,15.2-58.7,5.8
		c-16.2-9.3-24.3-27.2-24.3-53.7c0-26.4,8.1-53.7,24.3-81.8c16.2-28,35.8-48.7,58.7-61.9c22.9-13.2,42.4-15.2,58.6-5.8
		C538.7,237.4,546.8,255.3,546.8,281.8"/>
</g>
<g>
	<defs>
		<path id="SVGID_8_" d="M471.5,238.2c-22.9,13.2-42.5,33.9-58.7,61.9c-16.2,28.1-24.3,55.3-24.3,81.8c0,26.4,8.1,44.3,24.3,53.7
			c16.2,9.4,35.8,7.4,58.7-5.8c22.9-13.2,42.4-33.9,58.6-62c16.2-28.1,24.3-55.3,24.3-81.7c0-26.4-8.1-44.4-24.3-53.7
			c-6.7-3.9-14-5.8-21.8-5.8C497.1,226.6,484.9,230.5,471.5,238.2"/>
	</defs>
	<clipPath id="SVGID_9_">
		<use xlink:href="#SVGID_8_"  style="overflow:visible;"/>
	</clipPath>
	
		<linearGradient id="SVGID_10_" gradientUnits="userSpaceOnUse" x1="5.517513e-007" y1="1070.2194" x2="1" y2="1070.2194" gradientTransform="matrix(165.931 0 0 -165.931 388.4939 177918.3438)">
		<stop  offset="0" style="stop-color:#FF3F3F"/>
		<stop  offset="0.4673" style="stop-color:#FF3F65"/>
		<stop  offset="0.9768" style="stop-color:#FF5567"/>
		<stop  offset="1" style="stop-color:#FF5567"/>
	</linearGradient>
	<rect x="388.5" y="226.6" class="st20" width="165.9" height="218.4"/>
</g>
<g>
	<defs>
		<rect id="SVGID_11_" y="0" width="1116.4" height="1070.2"/>
	</defs>
	<clipPath id="SVGID_12_">
		<use xlink:href="#SVGID_11_"  style="overflow:visible;"/>
	</clipPath>
	<path class="st21" d="M527.4,307.5c-0.7,1.1-2,3-3.9,5.5c-0.7,0.8-1.5,1.9-2.7,3.3c-8.5,10.5-30.6,37.7-66.3,81.6
		c-1.5,1.8-2.8,3.1-3.7,3.9c-1.5,1.2-2.8,1.7-3.8,1.6c-1.3-0.1-2.1-1-2.6-2.6c-0.3-1.1-0.5-2.7-0.5-5v-90.2c0-1.8,0.2-3.6,0.8-5.4
		c0.7-2.1,1.7-3.8,3-5.1c1.6-1.7,3.9-2.5,6.8-2.3l69.8,5.3c1.5,0.2,2.6,0.5,3.1,0.8c1.1,0.5,1.6,1.5,1.7,2.9
		C529.2,303.3,528.7,305.2,527.4,307.5"/>
	<path class="st22" d="M898.1,722.3L564.5,914.9c-3,1.7-6.7,1.7-9.7,0l-141.6-81.8c-6.5-3.7-6.5-13.1,0-16.8l333.6-192.6
		c3-1.7,6.7-1.7,9.7,0l141.6,81.8C904.6,709.2,904.6,718.5,898.1,722.3"/>
	<path class="st21" d="M917.3,712.5c-4.9,2.5-11.2,6.1-19,10.8c-9.6,5.4-15.5,8.7-17.9,9.9L572.8,910.5c-1,0.7-2.9,1.9-5.7,3.6
		c-2.9,1.7-5.7,1.5-8.7-0.8c-0.6-0.5-1.2-1.1-1.9-1.7c-2.6-2.1-5.5-4.6-8.8-7.4c-6-4.8-9.6-7.8-10.8-8.9
		c-10.2-8.4-24.3-20.1-42.2-35.1c-17.4-15-31.5-26.7-42.2-35c-3-3-7-5.8-11.8-8.2L786,612.7c7.1-4.2,13.1-4.2,17.9,0L917.3,712.5z"
		/>
	<path class="st23" d="M917.3,712.5c-1.8,2.5-4.2,4.6-7.3,6.3c-1.8,1.2-4.8,3-9,5.4l-310.1,179c-1.8,1.2-4.6,2.9-8.3,4.9
		c-3.6,2-6.7,3.8-9.2,5.5c-2.6,1.7-5.4,3-8.7,4c-3,0-6-0.9-9-2.7c-1.7-1-3.4-2.2-5.1-3.4c-1.3-0.9-2.6-1.9-3.9-2.9
		c-3-3-7.2-6.3-12.6-9.9c-7.8-6.6-17.7-14.4-29.6-23.4c-18.6-14.4-33-25.4-43.1-33.1c-1.8-1.8-3.3-2.7-4.6-2.7
		c-0.6,0-2.1,0.3-4.5,0.8c-1.8,0.6-3.3,0.9-4.6,0.9c-1.2,0-2.2-0.2-3-0.7c-1-0.6-2.4-1.9-4.2-3.7c-2.4-2.4-3.9-5.8-4.5-10
		c-0.6-4.8,0.9-8.1,4.5-9.9c4.8,2.4,8.7,5.1,11.8,8.2c10.8,8.4,24.8,20,42.2,35c18,15,32.1,26.7,42.2,35.1c1.2,1.2,4.8,4.1,10.8,8.9
		c3.3,2.9,6.3,5.4,8.8,7.4c0.6,0.6,1.3,1.1,1.9,1.7c2.9,2.3,5.8,2.6,8.7,0.8c2.9-1.7,4.8-2.9,5.7-3.6l307.6-177.2
		c2.4-1.2,8.4-4.5,17.9-9.9C906.1,718.6,912.4,715,917.3,712.5 M449.3,826c-1.1-2-2.5-3.4-4.1-4.3c-1.6-0.9-3-1-4.1-0.2
		c-1.3,0.8-1.9,2.6-1.9,5.4c0,0.1,0.5,2,1.6,5.5c1.6,3.6,3.7,5.4,6.4,5.4c2.8,0,4.1-1.6,4.1-4.8C451.2,830.5,450.6,828.2,449.3,826"
		/>
	<path class="st24" d="M449.3,826c1.3,2.2,1.9,4.5,1.9,6.9c0,3.2-1.4,4.8-4.1,4.8c-2.7,0-4.8-1.8-6.4-5.4c-1.1-3.5-1.6-5.4-1.6-5.5
		c0-2.8,0.6-4.6,1.9-5.4c1.2-0.8,2.5-0.7,4.1,0.2C446.8,822.6,448.2,824,449.3,826"/>
	<polygon class="st25" points="609.8,853 626.8,843.2 626.8,846.1 609.8,855.9 	"/>
	<polygon class="st26" points="609.8,853 593.8,839.1 610.7,829.2 626.8,843.2 	"/>
	<polygon class="st27" points="593.7,839.1 609.8,853 609.8,855.9 593.7,841.9 	"/>
	<polygon class="st25" points="585.3,867.2 602.3,857.5 602.3,860.3 585.3,870.1 	"/>
	<polygon class="st27" points="585.3,867.2 585.3,870.1 569.3,856.2 569.3,853.3 	"/>
	<polygon class="st28" points="602.3,857.5 585.3,867.2 569.3,853.3 586.2,843.5 	"/>
	<polygon class="st25" points="633.4,839.4 650.3,829.6 650.3,832.4 633.4,842.3 	"/>
	<polygon class="st27" points="633.4,839.4 633.4,842.3 617.2,828.3 617.2,825.4 	"/>
	<polygon class="st28" points="650.3,829.6 633.4,839.4 617.2,825.4 634.1,815.6 	"/>
	<polygon class="st25" points="656.9,826 673.8,816.2 673.8,819 656.9,828.8 	"/>
	<polygon class="st27" points="640.8,812 656.9,826 656.9,828.8 640.8,814.9 	"/>
	<polygon class="st28" points="656.9,826 640.8,812 657.7,802.2 673.8,816.2 	"/>
	<polygon class="st28" points="680.8,811.7 664.8,797.6 681.7,787.9 697.8,801.8 	"/>
	<polygon class="st25" points="680.8,811.7 697.8,801.8 697.8,804.7 680.8,814.5 	"/>
	<polygon class="st27" points="664.8,797.6 680.8,811.7 680.8,814.5 664.8,800.5 	"/>
	<polygon class="st25" points="705.6,798.2 722.5,788.4 722.5,791.2 705.6,801 	"/>
	<polygon class="st27" points="705.6,798.2 705.6,801 689.4,787.1 689.4,784.2 	"/>
	<polygon class="st28" points="722.5,788.4 705.6,798.2 689.4,784.2 706.4,774.4 	"/>
	<polygon class="st25" points="730.2,787 730.2,784.1 747.1,774.3 747.1,777.2 	"/>
	<polygon class="st27" points="714.1,770.1 730.2,784.1 730.2,787 714.1,773 	"/>
	<polygon class="st28" points="730.2,784.1 714.1,770.1 731.1,760.4 747.1,774.3 	"/>
	<polygon class="st27" points="754,770.3 754,773.1 737.9,759.2 737.9,756.4 	"/>
	<polygon class="st25" points="754,770.3 770.9,760.6 770.9,763.4 754,773.1 	"/>
	<polygon class="st28" points="770.9,760.6 754,770.3 737.9,756.4 754.8,746.5 	"/>
	<polygon class="st25" points="777.5,756.6 794.4,746.9 794.4,749.7 777.5,759.5 	"/>
	<polygon class="st28" points="777.5,756.6 761.4,742.7 778.3,732.9 794.4,746.9 	"/>
	<polygon class="st27" points="761.4,742.7 777.5,756.6 777.5,759.5 761.4,745.5 	"/>
	<polygon class="st27" points="785.3,728.8 801.4,742.7 801.4,745.6 785.3,731.6 	"/>
	<polygon class="st25" points="801.4,745.6 801.4,742.7 818.4,733 818.4,735.8 	"/>
	<polygon class="st28" points="801.4,742.7 785.3,728.8 802.2,719 818.4,733 	"/>
	<polygon class="st25" points="825.2,729.1 842.1,719.3 842.1,722.2 825.2,732 	"/>
	<polygon class="st27" points="825.2,729.1 825.2,732 809.1,718 809.1,715.2 	"/>
	<polygon class="st28" points="842.1,719.3 825.2,729.1 809.1,715.2 826,705.3 	"/>
	<polygon class="st27" points="564.8,826.3 581,840.2 581,843.1 564.8,829.1 	"/>
	<polygon class="st25" points="581,843.1 581,840.2 597.9,830.5 597.9,833.3 	"/>
	<polygon class="st28" points="581,840.2 564.8,826.3 581.8,816.5 597.9,830.5 	"/>
	<polygon class="st25" points="604.4,829.4 604.4,826.6 621.4,816.8 621.4,819.6 	"/>
	<polygon class="st27" points="588.3,812.6 604.4,826.6 604.4,829.4 588.3,815.5 	"/>
	<polygon class="st28" points="604.4,826.6 588.3,812.6 605.3,802.8 621.4,816.8 	"/>
	<polygon class="st25" points="628,813.2 644.9,803.4 644.9,806.2 628,816.1 	"/>
	<polygon class="st27" points="628,813.2 628,816.1 611.9,802.1 611.9,799.2 	"/>
	<polygon class="st28" points="644.9,803.4 628,813.2 611.9,799.2 628.8,789.4 	"/>
	<polygon class="st27" points="635.9,784.9 652,798.9 652,801.7 635.9,787.7 	"/>
	<polygon class="st25" points="652,798.9 668.9,789 668.9,792 652,801.7 	"/>
	<polygon class="st28" points="668.9,789 652,798.9 635.9,784.9 652.8,775 	"/>
	<polygon class="st25" points="676.7,785.3 693.6,775.6 693.6,778.4 676.7,788.2 	"/>
	<polygon class="st27" points="676.7,785.3 676.7,788.2 660.6,774.3 660.6,771.4 	"/>
	<polygon class="st28" points="693.6,775.6 676.7,785.3 660.6,771.4 677.5,761.6 	"/>
	<polygon class="st25" points="701.4,771.3 718.3,761.5 718.3,764.4 701.4,774.2 	"/>
	<polygon class="st27" points="701.4,771.3 701.4,774.2 685.2,760.2 685.2,757.4 	"/>
	<polygon class="st28" points="718.3,761.5 701.4,771.3 685.2,757.4 702.1,747.6 	"/>
	<polygon class="st25" points="725.1,757.5 742,747.7 742,750.6 725.1,760.4 	"/>
	<polygon class="st28" points="725.1,757.5 709,743.5 726,733.7 742,747.7 	"/>
	<polygon class="st27" points="709,743.5 725.1,757.5 725.1,760.4 709,746.4 	"/>
	<polygon class="st25" points="748.6,743.8 765.5,734.1 765.5,736.9 748.6,746.8 	"/>
	<polygon class="st27" points="748.6,743.8 748.6,746.8 732.5,732.8 732.5,729.9 	"/>
	<polygon class="st28" points="765.5,734.1 748.6,743.8 732.5,729.9 749.4,720.1 	"/>
	<polygon class="st25" points="772.6,732.8 772.6,729.9 789.5,720.2 789.5,723 	"/>
	<polygon class="st27" points="756.4,716 772.6,729.9 772.6,732.8 756.4,718.9 	"/>
	<polygon class="st28" points="772.6,729.9 756.4,716 773.3,706.2 789.5,720.2 	"/>
	<polygon class="st25" points="796.3,716.3 813.2,706.6 813.2,709.4 796.3,719.2 	"/>
	<polygon class="st27" points="780.2,702.4 796.3,716.3 796.3,719.2 780.2,705.3 	"/>
	<polygon class="st28" points="813.2,706.6 796.3,716.3 780.2,702.4 797.1,692.6 	"/>
	<polygon class="st28" points="837.4,692.2 820.4,701.9 804.3,688 821.2,678.2 	"/>
	<polygon class="st27" points="820.4,701.9 820.4,704.8 804.3,690.9 804.3,688 	"/>
	<polygon class="st25" points="820.4,701.9 837.4,692.2 837.4,695 820.4,704.8 	"/>
	<polygon class="st27" points="577.5,791 593.7,805 593.7,807.9 577.5,793.8 	"/>
	<polygon class="st28" points="610.5,795.1 593.7,805 577.5,791 594.4,781.2 	"/>
	<polygon class="st25" points="593.7,805 610.5,795.1 610.5,798 593.7,807.9 	"/>
	<polygon class="st25" points="569.2,822 569.2,819.2 586.1,809.4 586.1,812.2 	"/>
	<polygon class="st27" points="553,805.2 569.2,819.2 569.2,822 553,808 	"/>
	<polygon class="st28" points="569.2,819.2 553,805.2 569.9,795.4 586.1,809.4 	"/>
	<polygon class="st27" points="617.1,791.3 617.1,794.2 601,780.2 601,777.3 	"/>
	<polygon class="st28" points="634,781.5 617.1,791.3 601,777.3 617.9,767.6 	"/>
	<polygon class="st25" points="617.1,791.3 634,781.5 634,784.4 617.1,794.2 	"/>
	<polygon class="st27" points="624.6,763.9 640.7,777.9 640.7,780.7 624.6,766.8 	"/>
	<polygon class="st25" points="640.7,777.9 657.6,768 657.6,771 640.7,780.7 	"/>
	<polygon class="st28" points="640.7,777.9 624.6,763.9 641.5,754.1 657.6,768 	"/>
	<polygon class="st28" points="664.7,763.6 648.5,749.6 665.5,739.8 681.5,753.7 	"/>
	<polygon class="st25" points="664.7,763.6 681.5,753.7 681.5,756.6 664.7,766.4 	"/>
	<polygon class="st27" points="648.5,749.6 664.7,763.6 664.7,766.4 648.5,752.4 	"/>
	<polygon class="st25" points="689.4,753 689.4,750.1 706.2,740.3 706.2,743.2 	"/>
	<polygon class="st28" points="689.4,750.1 673.2,736.2 690.1,726.2 706.2,740.3 	"/>
	<polygon class="st27" points="673.2,736.2 689.4,750.1 689.4,753 673.2,739 	"/>
	<polygon class="st25" points="714,736.1 731,726.2 731,729.1 714,738.9 	"/>
	<polygon class="st27" points="714,736.1 714,738.9 697.9,724.9 697.9,722 	"/>
	<polygon class="st28" points="731,726.2 714,736.1 697.9,722 714.8,712.2 	"/>
	<polygon class="st25" points="737.8,725.1 737.8,722.2 754.7,712.4 754.7,715.3 	"/>
	<polygon class="st27" points="721.7,708.3 737.8,722.2 737.8,725.1 721.7,711.1 	"/>
	<polygon class="st28" points="737.8,722.2 721.7,708.3 738.6,698.5 754.7,712.4 	"/>
	<polygon class="st27" points="745.1,694.7 761.2,708.6 761.2,711.5 745.1,697.5 	"/>
	<polygon class="st25" points="761.2,708.6 778.2,698.8 778.2,701.7 761.2,711.5 	"/>
	<polygon class="st28" points="778.2,698.8 761.2,708.6 745.1,694.7 762,684.8 	"/>
	<polygon class="st25" points="785.2,694.7 802.1,684.8 802.1,687.7 785.2,697.5 	"/>
	<polygon class="st27" points="785.2,694.7 785.2,697.5 769.1,683.5 769.1,680.7 	"/>
	<polygon class="st28" points="802.1,684.8 785.2,694.7 769.1,680.7 786,670.8 	"/>
	<polygon class="st25" points="809,683.9 809,681 825.8,671.3 825.8,674.1 	"/>
	<polygon class="st27" points="792.8,667.1 809,681 809,683.9 792.8,670 	"/>
	<polygon class="st28" points="809,681 792.8,667.1 809.7,657.3 825.8,671.3 	"/>
	<polygon class="st25" points="544.7,833.4 561.6,823.6 561.6,826.5 544.7,836.3 	"/>
	<polygon class="st27" points="544.7,833.4 544.7,836.3 528.6,822.3 528.6,819.4 	"/>
	<polygon class="st28" points="561.6,823.6 544.7,833.4 528.6,819.4 545.4,809.6 	"/>
	<polygon class="st27" points="535.8,784.9 551.9,798.8 551.9,801.7 535.8,787.7 	"/>
	<polygon class="st28" points="568.8,789 551.9,798.8 535.8,784.9 552.7,775 	"/>
	<polygon class="st25" points="551.9,798.8 568.8,789 568.8,791.9 551.9,801.7 	"/>
	<polygon class="st25" points="527.3,815.8 527.3,813 544.2,803.1 544.2,806 	"/>
	<polygon class="st27" points="511.2,799 527.3,813 527.3,815.8 511.2,801.8 	"/>
	<polygon class="st28" points="527.3,813 511.2,799 528,789.2 544.2,803.1 	"/>
	<polygon class="st27" points="559.3,771.1 575.3,785.1 575.3,787.9 559.3,773.9 	"/>
	<polygon class="st25" points="575.3,787.9 575.3,785.1 592.3,775.2 592.3,778.1 	"/>
	<polygon class="st28" points="575.3,785.1 559.3,771.1 576.2,761.3 592.3,775.2 	"/>
	<polygon class="st27" points="582.5,757.8 598.6,771.8 598.6,774.7 582.5,760.7 	"/>
	<polygon class="st25" points="598.6,771.8 615.5,762 615.5,764.9 598.6,774.7 	"/>
	<polygon class="st28" points="615.5,762 598.6,771.8 582.5,757.8 599.4,748 	"/>
	<polygon class="st28" points="639.8,747.7 622.9,757.5 606.8,743.5 623.7,733.7 	"/>
	<polygon class="st27" points="606.8,743.5 622.9,757.5 622.9,760.4 606.8,746.3 	"/>
	<polygon class="st25" points="622.9,757.5 639.8,747.7 639.8,750.5 622.9,760.4 	"/>
	<polygon class="st27" points="631.2,729.8 647.3,743.8 647.3,746.7 631.2,732.7 	"/>
	<polygon class="st25" points="647.3,746.7 647.3,743.8 664.2,734 664.2,736.8 	"/>
	<polygon class="st28" points="647.3,743.8 631.2,729.8 648.1,720 664.2,734 	"/>
	<polygon class="st25" points="672,729.7 689,719.9 689,722.7 672,732.6 	"/>
	<polygon class="st27" points="672,729.7 672,732.6 656,718.6 656,715.7 	"/>
	<polygon class="st28" points="689,719.9 672,729.7 656,715.7 672.8,705.9 	"/>
	<polygon class="st28" points="696,716.2 679.9,702.1 696.8,692.3 712.9,706.3 	"/>
	<polygon class="st25" points="696,719 696,716.2 712.9,706.3 712.9,709.1 	"/>
	<polygon class="st27" points="679.9,702.1 696,716.2 696,719 679.9,705 	"/>
	<polygon class="st25" points="719.3,705.1 719.3,702.3 736.3,692.4 736.3,695.3 	"/>
	<polygon class="st28" points="719.3,702.3 703.3,688.2 720.1,678.5 736.3,692.4 	"/>
	<polygon class="st27" points="703.3,688.2 719.3,702.3 719.3,705.1 703.3,691.1 	"/>
	<polygon class="st25" points="743.3,688.8 760.2,678.9 760.2,681.8 743.3,691.6 	"/>
	<polygon class="st27" points="743.3,688.8 743.3,691.6 727.2,677.6 727.2,674.7 	"/>
	<polygon class="st28" points="760.2,678.9 743.3,688.8 727.2,674.7 744.1,664.9 	"/>
	<polygon class="st27" points="750.9,661 767,675 767,677.9 750.9,663.9 	"/>
	<polygon class="st25" points="767,675 783.9,665.2 783.9,668.1 767,677.9 	"/>
	<polygon class="st28" points="767,675 750.9,661 767.8,651.3 783.9,665.2 	"/>
	<polygon class="st25" points="791,660.4 807.9,650.6 807.9,653.4 791,663.3 	"/>
	<polygon class="st27" points="774.9,646.4 791,660.4 791,663.3 774.9,649.3 	"/>
	<polygon class="st28" points="807.9,650.6 791,660.4 774.9,646.4 791.9,636.6 	"/>
	<polygon class="st28" points="503,827.2 486.8,813.3 503.7,803.5 519.9,817.5 	"/>
	<polygon class="st25" points="503,827.2 519.9,817.5 519.9,820.3 503,830.1 	"/>
	<polygon class="st27" points="486.8,813.3 503,827.2 503,830.1 486.8,816.2 	"/>
	<polygon class="st25" points="480.6,840.1 497.6,830.3 497.6,833.1 480.6,842.9 	"/>
	<polygon class="st27" points="480.6,840.1 480.6,842.9 464.5,829 464.5,826.1 	"/>
	<polygon class="st28" points="497.6,830.3 480.6,840.1 464.5,826.1 481.4,816.3 	"/>
	<polygon class="st25" points="812.8,648 829.7,638.2 829.7,641.1 812.8,650.9 	"/>
	<polygon class="st27" points="796.7,634 812.8,648 812.8,650.9 796.7,636.9 	"/>
	<polygon class="st28" points="812.8,648 796.7,634 813.6,624.2 829.7,638.2 	"/>
	<polygon class="st25" points="459.8,824.4 459.8,821.6 476.8,811.7 476.8,814.6 	"/>
	<polygon class="st28" points="476.8,811.7 459.8,821.6 454.3,816.7 470.8,806.9 	"/>
	<polygon class="st27" points="459.8,821.6 459.8,824.4 454.3,819.6 454.3,816.7 	"/>
	<polygon class="st26" points="499.1,798.5 482.1,808.3 476.5,803.5 493.1,793.7 	"/>
	<polygon class="st25" points="482.1,808.3 499.1,798.5 499.1,801.3 482.1,811.2 	"/>
	<polygon class="st27" points="476.5,803.5 482.1,808.3 482.1,811.2 476.5,806.4 	"/>
	<polygon class="st27" points="504.8,794.9 504.8,797.8 499.2,793 499.2,790.1 	"/>
	<polygon class="st25" points="504.8,794.9 521.7,785.1 521.7,787.9 504.8,797.8 	"/>
	<polygon class="st28" points="521.7,785.1 504.8,794.9 499.2,790.1 515.7,780.3 	"/>
	<polygon class="st25" points="528.6,781.1 545.5,771.3 545.5,774.1 528.6,783.9 	"/>
	<polygon class="st27" points="523,776.3 528.6,781.1 528.6,783.9 523,779.2 	"/>
	<polygon class="st28" points="545.5,771.3 528.6,781.1 523,776.3 539.6,766.5 	"/>
	<polygon class="st27" points="552.4,767.4 552.4,770.3 546.9,765.5 546.9,762.6 	"/>
	<polygon class="st25" points="552.4,767.4 569.4,757.6 569.4,760.5 552.4,770.3 	"/>
	<polygon class="st28" points="569.4,757.6 552.4,767.4 546.9,762.6 563.5,752.8 	"/>
	<polygon class="st26" points="575.8,753.8 570.2,748.9 586.8,739.2 592.7,743.9 	"/>
	<polygon class="st25" points="575.8,753.8 592.7,743.9 592.7,746.8 575.8,756.6 	"/>
	<polygon class="st27" points="570.2,748.9 575.8,753.8 575.8,756.6 570.2,751.9 	"/>
	<polygon class="st25" points="599,739.5 615.9,729.7 615.9,732.6 599,742.4 	"/>
	<polygon class="st28" points="615.9,729.7 599,739.5 593.5,734.7 610,724.9 	"/>
	<polygon class="st27" points="593.5,734.7 599,739.5 599,742.4 593.5,737.6 	"/>
	<polygon class="st25" points="638.9,716.8 638.9,719.7 622,729.5 622,726.6 	"/>
	<polygon class="st28" points="622,726.6 616.4,721.8 633,712.1 638.9,716.8 	"/>
	<polygon class="st27" points="616.4,721.8 622,726.6 622,729.5 616.4,724.7 	"/>
	<polygon class="st27" points="637.9,708.8 643.5,713.7 643.5,716.5 637.9,711.8 	"/>
	<polygon class="st25" points="643.5,716.5 643.5,713.7 660.4,703.8 660.4,706.7 	"/>
	<polygon class="st28" points="643.5,713.7 637.9,708.8 654.5,699.1 660.4,703.8 	"/>
	<polygon class="st25" points="667.7,699.1 684.6,689.3 684.6,692.2 667.7,702 	"/>
	<polygon class="st27" points="667.7,699.1 667.7,702 662.2,697.2 662.2,694.3 	"/>
	<polygon class="st28" points="684.6,689.3 667.7,699.1 662.2,694.3 678.7,684.6 	"/>
	<polygon class="st28" points="708.8,676.8 691.9,686.5 686.3,681.8 702.9,672 	"/>
	<polygon class="st27" points="686.3,681.8 691.9,686.5 691.9,689.4 686.3,684.6 	"/>
	<polygon class="st25" points="691.9,686.5 708.8,676.8 708.8,679.6 691.9,689.4 	"/>
	<polygon class="st25" points="713.6,673.7 730.4,663.9 730.4,666.8 713.6,676.5 	"/>
	<polygon class="st28" points="730.4,663.9 713.6,673.7 708,668.9 724.6,659.1 	"/>
	<polygon class="st27" points="713.6,673.7 713.6,676.5 708,671.7 708,668.9 	"/>
	<polygon class="st25" points="735.5,660.4 752.4,650.6 752.4,653.5 735.5,663.3 	"/>
	<polygon class="st28" points="752.4,650.6 735.5,660.4 729.9,655.6 746.5,645.9 	"/>
	<polygon class="st27" points="735.5,660.4 735.5,663.3 729.9,658.5 729.9,655.6 	"/>
	<polygon class="st25" points="774.7,637.7 774.7,640.6 757.7,650.4 757.7,647.6 	"/>
	<polygon class="st27" points="752.1,642.7 757.7,647.6 757.7,650.4 752.1,645.7 	"/>
	<polygon class="st28" points="757.7,647.6 752.1,642.7 768.7,633 774.7,637.7 	"/>
	<polygon class="st25" points="780.3,634.1 797.2,624.4 797.2,627.2 780.3,637 	"/>
	<polygon class="st27" points="774.7,629.3 780.3,634.1 780.3,637 774.7,632.2 	"/>
	<polygon class="st28" points="797.2,624.4 780.3,634.1 774.7,629.3 791.3,619.6 	"/>
	<polygon class="st28" points="576.6,844.6 524.2,875.3 508.1,861.4 560.6,830.8 	"/>
	<polygon class="st25" points="524.2,875.3 576.6,844.6 576.6,847.4 524.2,878.2 	"/>
	<polygon class="st27" points="508.1,861.4 524.2,875.3 524.2,878.2 508.1,864.2 	"/>
	<polygon class="st25" points="502.9,859.2 538,838.8 538,841.5 502.9,862 	"/>
	<polygon class="st28" points="502.9,859.2 486.8,845.2 521.4,825.1 538,838.8 	"/>
	<polygon class="st27" points="486.8,845.2 502.9,859.2 502.9,862 486.8,848 	"/>
	<polygon class="st25" points="544,892.7 579.3,872.4 579.3,875.2 544,895.6 	"/>
	<polygon class="st28" points="579.3,872.4 544,892.7 527.9,878.7 562.6,858.6 	"/>
	<polygon class="st27" points="544,892.7 544,895.6 527.9,881.6 527.9,878.7 	"/>
	<polygon class="st28" points="563.6,909.4 547.4,895.4 572.4,880.8 589.1,894.6 	"/>
	<polygon class="st25" points="563.6,909.4 589.1,894.6 589.1,897.3 563.6,912.3 	"/>
	<polygon class="st27" points="547.4,895.4 563.6,909.4 563.6,912.3 547.4,898.2 	"/>
	<polygon class="st27" points="593.5,892.2 593.5,895.1 577.4,881.1 577.4,878.2 	"/>
	<polygon class="st28" points="619,877.4 593.5,892.2 577.4,878.2 602.4,863.6 	"/>
	<polygon class="st25" points="593.5,892.2 619,877.4 619,880.2 593.5,895.1 	"/>
	<polygon class="st25" points="622.8,875.1 648.3,860.1 648.3,863 622.8,877.9 	"/>
	<polygon class="st27" points="622.8,875.1 622.8,877.9 606.6,863.9 606.6,861 	"/>
	<polygon class="st26" points="648.3,860.1 622.8,875.1 606.6,861 631.7,846.4 	"/>
	<polygon class="st25" points="823.9,759.2 849.4,744.4 849.4,747.2 823.9,762.1 	"/>
	<polygon class="st27" points="807.7,745.3 823.9,759.2 823.9,762.1 807.7,748.1 	"/>
	<polygon class="st28" points="823.9,759.2 807.7,745.3 832.8,730.6 849.4,744.4 	"/>
	<polygon class="st25" points="853.7,742 879.2,727.2 879.2,730 853.7,744.9 	"/>
	<polygon class="st27" points="853.7,742 853.7,744.9 837.6,730.9 837.6,728 	"/>
	<polygon class="st28" points="879.2,727.2 853.7,742 837.6,728 862.6,713.4 	"/>
	<polygon class="st27" points="866.8,710.8 882.9,724.8 882.9,727.7 866.8,713.7 	"/>
	<polygon class="st25" points="882.9,727.7 882.9,724.8 908.5,710 908.5,712.8 	"/>
	<polygon class="st28" points="882.9,724.8 866.8,710.8 891.8,696.2 908.5,710 	"/>
	<polygon class="st25" points="652.9,857.2 819.5,761.2 819.5,764.2 652.9,860.1 	"/>
	<polygon class="st28" points="819.5,761.2 652.9,857.2 636.9,843.2 803.7,747.9 	"/>
	<polygon class="st27" points="636.9,843.2 652.9,857.2 652.9,860.1 636.9,846.1 	"/>
	<polygon class="st27" points="836.3,699.5 852.5,713.4 852.5,716.3 836.3,702.3 	"/>
	<polygon class="st28" points="887.6,693.1 852.5,713.4 836.3,699.5 871,679.3 	"/>
	<polygon class="st25" points="852.5,713.4 887.6,693.1 887.6,695.9 852.5,716.3 	"/>
	<polygon class="st28" points="841.7,689.8 825.5,675.8 834.3,670.6 836.2,669.6 816.8,652.8 832.2,643.5 867.7,674.3 	"/>
	<path class="st27" d="M825.5,675.8l16.2,13.9v2.9l-16.2-13.9V675.8z M816.8,652.8l19.4,16.8l-1.9,1.1l-17.5-15V652.8z"/>
	<polygon class="st25" points="841.7,692.7 841.7,689.8 867.7,674.3 867.7,677.4 	"/>
	<path class="st29" d="M936.3,935.8c-7,0-14,1.5-19.4,4.6l-76.8,44.3c-10.7,6.2-10.8,16.2-0.1,22.5l29.2,17
		c5.3,3.1,12.3,4.7,19.4,4.7c7,0,14-1.6,19.4-4.6l76.8-44.3c10.7-6.2,10.8-16.2,0.1-22.4l-29.2-17
		C950.3,937.4,943.3,935.8,936.3,935.8"/>
	<path class="st30" d="M942.8,559.8c-2.1-0.1-18.2,0.5-15.9,34.7c0,0,4.4,38.7,4.2,42.1c-0.2,3.4,0,24.7,4.3,47.9
		c0,0,2.3,13.8-1.5,29.9c-0.9,3.9-0.8,15.4,7.5,20.6c3.6,2.2,7-1.1,7.5-9.9c0.3-5.5,1.5-12.9,0.5-21.9c-0.4-4,1.6-22.8,1.9-27.9
		c0.3-5.1,3.3-30,1.2-41.9c-2.1-11.9,3.1-33.3,2.5-42.8C954.3,580.9,956.4,560.5,942.8,559.8"/>
	<path class="st31" d="M916.7,662.4c0,0-20.9,37.9-11.4,100c6.5,42.7,14.9,59.4,15.6,63.4c0.7,4,8.4,62.3,12.6,89.3
		c1.8,11.5-0.5,32.1-7.4,45.8c-1,2-1.6,6.1-7.9,4.1c0,0-3.9-0.1-4.9,0.9c-1,1-4,3.7,6.2,9.1c10.2,5.4,13.1,7.9,17.6-5.6
		c4.4-13.5,11.7-15.4,15.7-18c4-2.6,10.6-7.5,4.4-16.7c0,0-7-13.3-3.6-28.7c3.4-15.4,10.5-57.8,1.3-80.9c-14-34.9-7.5-63.8-7-75.5
		c0.5-11.7-3-11.4-3-11.4S929.4,682.1,916.7,662.4"/>
	<path class="st32" d="M957.6,935.6c0,0,5.8,6.4,2.4,20.3l-3.7,28.2l-3,1.5l-3.8-1.5l0.2-28.2c0,0-4,13.5-8.9,22.1
		c-1.2,2-9.9,6.3-16.5,5.6c-10.1-1.1-25.4-16.2-15.1-18.6c3.8-0.9,12.8,0.4,12.8,0.4s-9.6,2.8,2.5,5.5c3.6,0.8,5.8,0.5,10.6-10.6
		C939.9,949.3,948.5,935.7,957.6,935.6"/>
	<path class="st33" d="M949.6,955.9c0,0-6-4-10.4,10c-2,6.3-6,13.5-15,17.7c0,0,7,0.8,13.3-3.6c0,0,3.7-1.5,5-4.7
		C945.2,968.7,949.6,955.9,949.6,955.9"/>
	<path class="st31" d="M880.6,677.7c0,0-21.3,37.6-12.5,99.9c6,42.7,14.3,59.6,14.9,63.5c0.6,4,7.7,62.4,11.6,89.4
		c1.6,11.5-0.9,32.1-8,45.7c-1,2-1.7,6.1-8,4c0,0-3.9-0.1-4.9,0.9c-1,1-4,3.6,6.1,9.1c10.1,5.5,13,8.1,17.6-5.4
		c4.6-13.4,11.9-15.3,15.9-17.9c4-2.6,10.7-7.4,4.6-16.7c0,0-6.8-13.4-3.3-28.7c3.5-15.3,12.5-58.2,2.2-80.9
		c-16.2-35.6-1.3-63.8-0.7-75.5c0.6-11.7-5.5-8.6-5.5-8.6s34.9-20.8,9.1-64.5l-0.8-6.1C918.8,686.1,893.1,697.5,880.6,677.7"/>
	<path class="st32" d="M918.4,951.3c0,0,5.7,6.4,2.2,20.3l-4.1,28.1l-3,1.5l-3.8-1.5l0.5-28.2c0,0-4.1,13.5-9.2,22
		c-1.2,2-10,6.2-16.5,5.4c-10.1-1.2-25.3-16.4-14.9-18.8c3.8-0.9,12.8,0.6,12.8,0.6s-9.6,2.7,2.5,5.5c3.6,0.9,5.8,0.5,10.8-10.5
		C900.6,964.8,909.4,951.3,918.4,951.3"/>
	<path class="st33" d="M910.2,971.5c0,0-5.9-4.1-10.5,9.9c-2.1,6.3-6.2,13.4-15.2,17.6c0,0,7,0.9,13.4-3.4c0,0,3.7-1.5,5-4.6
		C905.7,984.3,910.2,971.5,910.2,971.5"/>
	<path class="st30" d="M924.2,849.4c2.8,20.4,6.7,49.1,9.3,65.7c1.5,9.9,0,26.7-4.9,39.9c5-1.2,10.6-6.9,12.1-31.4
		c1.8-29.1-9.5-73-9.5-90.9c0-17.9-10.3-44.2-10.3-44.2h-10.8c5.2,23.7,10.3,34.2,10.8,37.3C922.6,831.1,923.6,839.4,924.2,849.4"/>
	<path class="st30" d="M894.5,930.6c1.6,10.8-0.6,29.8-6.8,43.3c9.5-1.1,11.4-22.6,15.1-45.7c4.2-26.2-9.6-58-9.6-78.6
		c0-20.6-9.8-51.6-9.8-51.6l-13.3-7.2c5.7,33.1,12.3,46.8,12.8,50.3C883.6,845.1,890.7,903.5,894.5,930.6"/>
	<path class="st34" d="M874.3,682.4c0,0-9.9,136.3,12.6,203.7c0,0,12.6,6,33.6,1.5c14.9-3.2,29.1-8.7,39.1-18.7
		c0,0,6-49.2-5.4-123.3c-2.7-17.5,13.2-43.3-10.9-73.4L874.3,682.4z"/>
	<path class="st35" d="M909.9,677.2c0,0,25.9,29.6,15.6,54c-3,7.1-6.6,10.3-18.3,24.7c-5,6.2-20.3,45,13.3,131.8
		c0,0-17,1.8-20.4,1.6c-7.2-0.3-13.2-3.2-13.2-3.2s-44.7-97.5-12.6-203.7L909.9,677.2z"/>
	<path class="st36" d="M954.1,745.7c-2.7-17.5,13.2-43.3-10.9-73.4l-17.6,2.6c-0.6,1.6-0.4,3.5,0.8,5.8c9.8,18.3,15.4,35,2.7,61.5
		c-8.3,17.2-8.3,17.2-15.5,48.6c-6.6,28.4,15,83.6,19.1,93.6c10.3-3.4,19.7-8.3,26.8-15.4C959.5,869,965.6,819.8,954.1,745.7"/>
	<path class="st37" d="M878.5,581.7c0,0-20.8,14.4-12.7,32.5c0,0,17.7,34.1,11,66.8c0,0,6.4,17.3,29.3,12.7c0,0,18.4-1.2,37.1-21.3
		c0,0-9.2-22.4,2-45.1c0,0,26.4-67-12.1-70.3C933.1,556.9,918.3,553.3,878.5,581.7"/>
	<path class="st38" d="M951.5,606.3c0,0-1.5,10.8-9,27.8c0,0-1.8,7.2-2.7,24.5c0,0-34.1,33.1-68.5,8.7c0,0,5,4.9,4.8-4.8v-35.8
		L951.5,606.3z"/>
	<path class="st39" d="M951.5,606.3l-12.1,3.3c-9.2,6-17.3,9.8-17.3,9.8c-22.9,9.3-37.2,10.2-46,8.7v19.3c16.2,13,16.4-2.5,25.1,3.1
		c8.9,5.7,11.9-0.8,17.6-6.5c6.6-6.6,8.2-5.9,13.6-2.6c4,2.4,6.8,2,8.9,0.4c0.7-5.3,1.3-7.6,1.3-7.6
		C950,617.1,951.5,606.3,951.5,606.3"/>
	<path class="st31" d="M895,569.2l-2.4-12.7c0,0-16.1,4.4-16.7-4c-0.6-8.9-2.5-16.5,1.1-21.8c1.6-2.3,2.2-6.5,1.1-11.2
		c-1.8-7.9,1.4-16.9,9.1-20.5c0,0,26.1-13.8,40.1,2.2c0,0,10.7,12.6-1.4,39.3c0,0-6.6,12.5-3.6,21.5c0,0-0.1,6.5-12,8.8
		C910.3,570.9,899,573.1,895,569.2"/>
	<path class="st40" d="M884.1,501h-3.4c0,0-1.2,2.6-1.6,6.5C880.3,505,881.9,502.7,884.1,501"/>
	<path class="st41" d="M892.6,556.5l2.4,12.7c0.8,0.8,2,1.4,3.3,1.7c6.1-2.6,13.1-8.1,13.1-8.1l2.5-41.5L905,501h-20.9
		c-2.2,1.7-3.8,4-4.9,6.5c-0.5,4.9,0.2,11.9,5.8,18.8c10,12.5,10.1,8.3,8.7,16.2c-1.4,7.9-1.4,14.3-14.6,14.3
		C883.9,558.9,892.6,556.5,892.6,556.5"/>
	<path class="st42" d="M880.5,496.6c-4.9,8.5-3.6,16.6,13.5,35.6c0,0,21.5,11.9-19.3,44c0,0,33.2,16.7,56.8-13.4
		c12.6-16.1,25.6-53.3-0.7-73.7C919.8,480.4,888.8,482.3,880.5,496.6"/>
	<path class="st43" d="M880.5,496.6c-4.9,8.5-3.6,16.6,13.5,35.6c0,0,21.5,11.9-19.3,44c0,0,37.9,16.7,61.5-13.4
		c12.6-16.1,20.9-53.3-5.3-73.7C919.8,480.4,888.8,482.3,880.5,496.6"/>
	<path class="st30" d="M894.5,541.7c0,0,0.7-9.9,7.1-8.6c2,0.4,4.5,1.8,3,7.2c-1.5,5.4-5.9,11.1-10.5,11.8L894.5,541.7z"/>
	<path class="st44" d="M930.9,489.1c-11.2-8.7-42.1-6.8-50.4,7.5c-3.7,6.4-3.9,12.6,3.6,23.3c0,0-3.1-10.5,0-15.7
		c0,0,2.3,11.7,6.3,15.7c0,0-2.1-13.6,2.3-21.2c0,0,0.6,10.4,6.9,16.7c0,0-3.5-12.2,0-19.6c0,0,9.4,10.5,7.7,18.8
		c0,0,4.9-11.7,1.7-21.2c0,0,10.1,11.1,6.5,24.6c0,0,8.2-10.3,6.5-21.9c0,0,8.7,14.4,6.7,23.7c0,0,5.4-18.5,3.1-25.2
		c0,0,9,22,5.7,32.7c0,0,5.9-9,6.5-20.7C941.5,500.2,937.4,494.1,930.9,489.1"/>
	<path class="st45" d="M930.9,489.1c-9.9-7.7-35.2-7.1-46.6,3c-1.2,2.7-2.1,5.7-1.5,7.5c0,0,1.6-4.9,4.7-6.8c0,0-1.2,6.9,0,9.9
		c0,0,2.4-9.3,8.5-12.6c0,0-1,1.3,0,5c0,0,2.5-6,6.4-7.3c0,0-1,3.3,1,6.6c0,0,1.8-6,5.4-7.1c0,0,3.8,1.2,6.4,7.1
		c0,0,3.1-4.8,1.2-6.7c0,0,9.8,4.4,10.5,9.9c0.8,5.5,0.5-5.2-1.1-8.1c0,0,7.3,2.8,10.6,6.2c0,0,0.1-0.7,0-1.7
		C934.7,492.3,932.9,490.6,930.9,489.1"/>
	<path class="st30" d="M879.7,584.8c-2.1-0.2-18.2,0-16.9,34.2c0,0,3.3,38.8,3.1,42.2c-0.3,3.4-0.7,24.7,3,48c0,0,2,13.9-2.3,29.8
		c-1,3.9,2.1,17.2,10.4,22.6c3.5,2.3,3.6-2.7,4.3-11.5c0.4-5.5,1.8-12.9,1.1-21.9c-0.3-4,2.3-22.7,2.7-27.9
		c0.4-5.1,4.1-29.9,2.4-41.8c-1.7-12,4.1-33.2,3.6-42.7S893.4,585.8,879.7,584.8"/>
	<path class="st46" d="M881.3,750c0.4-5.5,1.8-12.9,1.1-21.9c-0.3-4,2.3-22.7,2.7-27.9c0.4-5.1,4.1-29.9,2.4-41.8
		c-1.7-12,4.1-33.2,3.6-42.7c-0.4-9.5,2.2-29.8-11.4-30.9c-0.3,0-0.7,0-1.3,0c3.7,3.6,8,11.4,6.3,28.3c-2.8,27.5-5.1,46.3-5.1,55.6
		c0,9.3,1.6,42.8-1.5,58.7c-3,14.7,2.2,28.1-2,33.5c0.3,0.2,0.6,0.4,0.9,0.6C880.5,763.8,880.6,758.9,881.3,750"/>
	<path class="st47" d="M862.8,610.5c0,0,11.3,16,58.1-3c0,0,20.3-9.4,33.2-22.3l0.7-0.6c0,0,12.5,26.4,5.5,32.7
		c-2.8,2.5-4.8-1-6.3-2.5c-3.2-3.2-8.3-0.6-9,3.7c-0.5,3.2-3.1,17.6-13.9,11c-5.4-3.3-7-4-13.6,2.6c-5.7,5.7-8.6,12.2-17.6,6.5
		c-8.9-5.7-8.9,10.8-26.4-4.2c-5.4-4.6-11,12.2-15.4,7.8C849.9,634,862.8,610.5,862.8,610.5"/>
</g>
</svg>
