{
    "/desktop/js/site.js": "/desktop/js/site.js",
    "/desktop/css/app.css": "/desktop/css/app.css",
    "/desktop/css/vendor.css": "/desktop/css/vendor.css",
    "/desktop/js/vendor.js": "/desktop/js/vendor.js",
    "/desktop/js/chart.js": "/desktop/js/chart.js",
    "/desktop/js/modernizr.js": "/desktop/js/modernizr.js",
    "/desktop/js/app.js": "/desktop/js/app.js"
}