<?xml version="1.0" encoding="utf-8"?>
<!-- Generator: Adobe Illustrator 22.0.1, SVG Export Plug-In . SVG Version: 6.00 Build 0)  -->
<svg version="1.1" id="Layer_1" xmlns="http://www.w3.org/2000/svg" xmlns:xlink="http://www.w3.org/1999/xlink" x="0px" y="0px"
	 viewBox="0 0 1550 1220.3" style="enable-background:new 0 0 1550 1220.3;" xml:space="preserve">
<style type="text/css">
	.st0{opacity:0.12;}
	.st1{fill:#F2F2F2;}
	.st2{fill:#4B4B5B;}
	.st3{fill:#FFFFFF;}
	.st4{fill:#FF4D4D;}
	.st5{fill:#FF9F9F;}
	.st6{fill:#A1A1B2;}
</style>
<polygon class="st0" points="1550,567.7 675.6,1072.5 0,682.4 874.4,177.6 "/>
<g>
	<polygon class="st1" points="1550,537.8 675.6,1042.6 0,652.6 874.4,147.7 	"/>
	<polygon class="st2" points="945,188.5 70.7,693.4 0,652.6 874.4,147.7 	"/>
	<g>
		<path class="st3" d="M87.5,642.8c6.8,3.9,6.8,10.3,0,14.2c-6.8,3.9-17.8,3.9-24.6,0c-6.8-3.9-6.8-10.3,0-14.2
			C69.8,638.9,80.8,638.9,87.5,642.8z"/>
		<path class="st3" d="M126.7,620.2c6.8,3.9,6.8,10.3,0,14.2c-6.8,3.9-17.8,3.9-24.6,0c-6.8-3.9-6.8-10.3,0-14.2
			C108.9,616.3,119.9,616.3,126.7,620.2z"/>
		<path class="st3" d="M165.9,597.6c6.8,3.9,6.8,10.3,0,14.2c-6.8,3.9-17.8,3.9-24.6,0c-6.8-3.9-6.8-10.3,0-14.2
			C148.1,593.7,159.1,593.7,165.9,597.6z"/>
	</g>
</g>
<polygon class="st4" points="934.4,696.8 505.5,944.4 132.4,729 561.2,481.4 "/>
<g>
	<polygon class="st5" points="1379.9,439.6 951.1,687.2 577.9,471.8 1006.8,224.2 	"/>
	<g>
		<g>
			<path class="st3" d="M1191.3,465.3L995.5,578.3c-15.7,9.1-41.2,9.1-56.9,0c-15.7-9.1-15.7-23.8,0-32.8l195.8-113.1
				c15.7-9.1,41.2-9.1,56.9,0C1207,441.5,1207,456.2,1191.3,465.3z M946.6,550.1c-11.3,6.5-11.3,17.2,0,23.7c11.3,6.5,29.7,6.5,41,0
				l195.8-113.1c11.3-6.5,11.3-17.2,0-23.7c-11.3-6.5-29.7-6.5-41,0L946.6,550.1z"/>
		</g>
		<g>
			<g>
				<path class="st3" d="M1052.8,509.9l-37.4,21.6c-1.7,1-4.5,1-6.2,0l0,0c-1.7-1-1.7-2.6,0-3.6l37.4-21.6c1.7-1,4.5-1,6.2,0l0,0
					C1054.5,507.3,1054.5,508.9,1052.8,509.9z"/>
				<path class="st3" d="M1110.2,476.8l-41.2,23.8c-1.7,1-4.5,1-6.2,0l0,0c-1.7-1-1.7-2.6,0-3.6l41.2-23.8c1.7-1,4.5-1,6.2,0l0,0
					C1111.9,474.2,1111.9,475.8,1110.2,476.8z"/>
			</g>
			<g>
				<path class="st3" d="M1045.9,526.1l-19.9,11.5c-1.7,1-4.5,1-6.2,0l0,0c-1.7-1-1.7-2.6,0-3.6l19.9-11.5c1.7-1,4.5-1,6.2,0l0,0
					C1047.6,523.5,1047.6,525.1,1045.9,526.1z"/>
				<path class="st3" d="M1120.8,482.8l-62.2,35.9c-1.7,1-4.5,1-6.2,0l0,0c-1.7-1-1.7-2.6,0-3.6l62.2-35.9c1.7-1,4.5-1,6.2,0l0,0
					C1122.5,480.3,1122.5,481.9,1120.8,482.8z"/>
			</g>
		</g>
	</g>
</g>
<g>
	<path class="st3" d="M561.6,668.3l-98,56.6c-4.1,2.4-10.9,2.4-15,0l0,0c-4.1-2.4-4.1-6.3,0-8.7l98-56.6c4.1-2.4,10.9-2.4,15,0l0,0
		C565.7,662.1,565.7,666,561.6,668.3z"/>
	<path class="st3" d="M593.6,686.8l-98,56.6c-4.1,2.4-10.9,2.4-15,0l0,0c-4.1-2.4-4.1-6.3,0-8.7l98-56.6c4.1-2.4,10.9-2.4,15,0l0,0
		C597.7,680.6,597.7,684.4,593.6,686.8z"/>
	<path class="st3" d="M625.6,705.3l-98,56.6c-4.1,2.4-10.9,2.4-15,0l0,0c-4.1-2.4-4.1-6.3,0-8.7l98-56.6c4.1-2.4,10.9-2.4,15,0l0,0
		C629.7,699,629.7,702.9,625.6,705.3z"/>
</g>
<polygon class="st6" points="1550,537.8 675.6,1042.6 524.2,955.2 1398.6,450.4 "/>
<g>
	<g>
		<path class="st3" d="M1237.6,598.9l-41.8,24.1c-1.9,1.1-5,1.1-6.9,0l0,0c-1.9-1.1-1.9-2.9,0-4l41.8-24.1c1.9-1.1,5-1.1,6.9,0l0,0
			C1239.5,596,1239.5,597.8,1237.6,598.9z"/>
		<path class="st3" d="M1274.8,577.4l-19.2,11.1c-1.9,1.1-5,1.1-6.9,0l0,0c-1.9-1.1-1.9-2.9,0-4l19.2-11.1c1.9-1.1,5-1.1,6.9,0l0,0
			C1276.7,574.5,1276.7,576.3,1274.8,577.4z"/>
	</g>
	<g>
		<path class="st3" d="M1257.2,615.5l41.8-24.1c1.9-1.1,5-1.1,6.9,0l0,0c1.9,1.1,1.9,2.9,0,4l-41.8,24.1c-1.9,1.1-5,1.1-6.9,0l0,0
			C1255.3,618.4,1255.3,616.6,1257.2,615.5z"/>
		<path class="st3" d="M1220,636.9l19.2-11.1c1.9-1.1,5-1.1,6.9,0l0,0c1.9,1.1,1.9,2.9,0,4l-19.2,11.1c-1.9,1.1-5,1.1-6.9,0l0,0
			C1218.1,639.8,1218.1,638,1220,636.9z"/>
	</g>
	<g>
		<path class="st3" d="M1299.8,634.7l-41.8,24.1c-1.9,1.1-5,1.1-6.9,0l0,0c-1.9-1.1-1.9-2.9,0-4l41.8-24.1c1.9-1.1,5-1.1,6.9,0l0,0
			C1301.7,631.8,1301.7,633.6,1299.8,634.7z"/>
		<path class="st3" d="M1336.9,613.3l-19.2,11.1c-1.9,1.1-5,1.1-6.9,0l0,0c-1.9-1.1-1.9-2.9,0-4l19.2-11.1c1.9-1.1,5-1.1,6.9,0l0,0
			C1338.8,610.4,1338.8,612.2,1336.9,613.3z"/>
	</g>
</g>
<g>
	<path class="st3" d="M731.9,926.7c14.4,8.3,14.4,21.8,0,30.1c-14.4,8.3-37.8,8.3-52.2,0c-14.4-8.3-14.4-21.8,0-30.1
		C694.2,918.4,717.5,918.4,731.9,926.7z"/>
	<path class="st4" d="M716.9,948.2c-6.1,3.5-16,3.5-22.1,0c-6.1-3.5-6.1-9.3,0-12.8c6.1-3.5,16-3.5,22.1,0
		C723,938.9,723,944.6,716.9,948.2z"/>
	<path class="st3" d="M844.4,861.8c14.4,8.3,14.4,21.8,0,30.1c-14.4,8.3-37.8,8.3-52.2,0c-14.4-8.3-14.4-21.8,0-30.1
		C806.6,853.5,830,853.5,844.4,861.8z"/>
	<path class="st4" d="M829.3,883.3c-6.1,3.5-16,3.5-22.1,0c-6.1-3.5-6.1-9.3,0-12.8c6.1-3.5,16-3.5,22.1,0
		C835.5,874,835.5,879.7,829.3,883.3z"/>
	<path class="st3" d="M956.8,796.9c14.4,8.3,14.4,21.8,0,30.1c-14.4,8.3-37.8,8.3-52.2,0c-14.4-8.3-14.4-21.8,0-30.1
		C919,788.6,942.4,788.6,956.8,796.9z"/>
	<path class="st4" d="M941.8,818.3c-6.1,3.5-16,3.5-22.1,0c-6.1-3.5-6.1-9.3,0-12.8c6.1-3.5,16-3.5,22.1,0
		C947.9,809.1,947.9,814.8,941.8,818.3z"/>
</g>
<ellipse transform="matrix(0.9983 -5.799207e-02 5.799207e-02 0.9983 -32.4074 45.1728)" class="st1" cx="762.1" cy="580.9" rx="143.7" ry="98.6"/>
<g transform="matrix( 1, 0, 0, 1, 0,0) ">
	<g>
		<g id="a">
			<path class="st2" d="M822,510.5l-38.1-5.4l-36.5,102.5l-60.2-10.1l-10.9,26.3l99.5,16.6L822,510.5z"/>
		</g>
	</g>
</g>
</svg>
