<?xml version="1.0" encoding="utf-8"?>
<!-- Generator: Adobe Illustrator 22.0.1, SVG Export Plug-In . SVG Version: 6.00 Build 0)  -->
<svg version="1.1" id="Layer_1" xmlns="http://www.w3.org/2000/svg" xmlns:xlink="http://www.w3.org/1999/xlink" x="0px" y="0px"
	 viewBox="0 0 1550 1220.3" style="enable-background:new 0 0 1550 1220.3;" xml:space="preserve">
<style type="text/css">
	.st0{fill:#949494;}
	.st1{fill:url(#SVGID_1_);}
	.st2{fill:#727287;}
	.st3{fill:#292935;}
	.st4{fill:#D82727;}
	.st5{fill:#E52C2C;}
	.st6{fill:#FF4D4D;}
	.st7{fill:#FF5F5F;}
	.st8{fill:#FF6E6E;}
	.st9{fill:#FCBEBE;}
	.st10{fill:#FFFFFF;}
</style>
<g>
	<path class="st0" d="M378.1,441.3c262.8-177.6,534-177.6,796.8,0h0c131.4,88.8,197.1,179,197.1,269.3
		c0,90.2-65.7,180.4-197.1,269.3c-262.8,177.6-534,177.6-796.8,0C246.7,891,181,800.8,181,710.5S246.7,530.1,378.1,441.3z"/>
</g>
<linearGradient id="SVGID_1_" gradientUnits="userSpaceOnUse" x1="14793.2842" y1="710.5427" x2="15984.2842" y2="710.5427" gradientTransform="matrix(-1 0 0 1 16165.2842 0)">
	<stop  offset="0" style="stop-color:#C2DD00"/>
	<stop  offset="9.571359e-02" style="stop-color:#C7E000"/>
	<stop  offset="0.3006" style="stop-color:#CAE200"/>
	<stop  offset="0.5494" style="stop-color:#BAD200"/>
	<stop  offset="0.7441" style="stop-color:#B4CC00"/>
	<stop  offset="1" style="stop-color:#8AA500"/>
</linearGradient>
<path class="st1" d="M378.1,441.3c262.8-177.6,534-177.6,796.8,0l0,0c131.4,88.8,197.1,179,197.1,269.3s-65.7,180.5-197.1,269.3
	c-262.8,177.6-534,177.6-796.8,0C246.7,891,181,800.8,181,710.5C181,620.3,246.7,530.1,378.1,441.3z"/>
<path class="st2" d="M378.1,845.4c262.8,177.6,534,177.6,796.8,0c131.4-88.8,197.1-179,197.1-269.2v134.4
	c0,90.2-65.7,180.4-197.1,269.3c-262.8,177.6-534,177.6-796.8,0C246.7,891,181,800.8,181,710.5V576.2
	C181,666.4,246.7,756.6,378.1,845.4z"/>
<path class="st3" d="M378.1,306.9c262.8-177.6,534-177.6,796.8,0l0,0c131.4,88.8,197.1,179,197.1,269.3
	c0,90.2-65.7,180.4-197.1,269.2c-262.8,177.6-534,177.6-796.8,0C246.7,756.6,181,666.4,181,576.2S246.7,395.7,378.1,306.9z"/>
<g>
	<polygon class="st4" points="428.4,626.9 475.1,658.5 443.8,794.2 397.1,762.6 	"/>
	<polygon class="st4" points="397.1,533.4 443.8,565 475.1,658.5 428.4,626.9 	"/>
	<polygon class="st5" points="529.5,443.9 576.2,475.5 443.8,565 397.1,533.4 	"/>
	<polygon class="st4" points="919.3,409.8 966,441.4 966,212.1 919.3,180.5 	"/>
	<polygon class="st4" points="919.3,180.5 966,212.1 1098.4,122.6 1051.7,91 	"/>
	<g>
		<polygon class="st6" points="443.8,565 475.1,658.5 443.8,794.2 576.2,704.7 576.2,475.5 		"/>
		<polygon class="st6" points="1098.4,122.6 1067.1,258.4 1098.4,351.9 966,441.4 966,212.1 		"/>
	</g>
</g>
<g>
	<polygon class="st7" points="578.1,766.6 531.4,735 531.4,505.7 578.1,537.3 	"/>
	<polygon class="st8" points="578.1,537.3 531.4,505.7 1009.9,182.3 1056.6,213.9 	"/>
	<polygon class="st6" points="1056.6,443.1 578.1,766.6 578.1,537.3 1056.6,213.9 	"/>
</g>
<g>
	<g>
		<path class="st9" d="M817.6,221.8c44.1-29.8,84.1-32.6,113-13.1l67.9,45.9c-28.9-19.5-68.9-16.7-113,13.1
			c-88.3,59.7-159.8,204.8-159.8,324.1c0,59.6,17.9,101.6,46.8,121.1L704.6,667c-28.9-19.6-46.8-61.5-46.8-121.1
			C657.8,426.6,729.3,281.5,817.6,221.8z"/>
		<g>
			<g>
				<g>
					<g>
						<g>
							<path class="st10" d="M725.7,591.8c0,59.6,17.9,101.6,46.8,121.1c28.9,19.6,68.9,16.7,113-13.1
								c88.3-59.6,159.8-204.7,159.8-324c0-59.7-17.9-101.6-46.8-121.1c-28.9-19.5-68.9-16.7-113,13.1
								C797.2,327.4,725.7,472.5,725.7,591.8z"/>
						</g>
					</g>
					<g>
						<g>
							<path class="st9" d="M749.4,575.8c0,101.6,60.9,142.8,136.1,92c75.2-50.8,136.1-174.4,136.1-276c0-101.6-60.9-142.8-136.1-92
								C810.3,350.6,749.4,474.1,749.4,575.8z"/>
						</g>
					</g>
					<g>
						<g>
							<path class="st10" d="M770.7,561.4c0,85.7,51.4,120.5,114.9,77.6c63.4-42.9,114.8-147.1,114.8-232.8
								c0-85.7-51.4-120.5-114.8-77.6C822.1,371.4,770.7,475.6,770.7,561.4z"/>
						</g>
					</g>
				</g>
			</g>
		</g>
	</g>
</g>
<g>
	<path class="st9" d="M860.5,571.5l25.4-20.3l2.9-87.5c0.1-4.3,0.4-8.8,0.7-13.7L874,478.3c-1,1.8-2,3.3-3,4.5
		c-1,1.2-1.9,2.2-2.8,2.9c-1.6,1.2-3,1.9-4.2,2c-1.2,0.1-2.1-0.2-2.7-0.7l-8.4-8.4l42.6-78.2l23.2-18.5L914,528.8l21.8-17.4
		l-0.9,26.7l-75.2,60L860.5,571.5z"/>
</g>
</svg>
