<?xml version="1.0" encoding="utf-8"?>
<!-- Generator: Adobe Illustrator 16.0.0, SVG Export Plug-In . SVG Version: 6.00 Build 0)  -->
<!DOCTYPE svg PUBLIC "-//W3C//DTD SVG 1.1//EN" "http://www.w3.org/Graphics/SVG/1.1/DTD/svg11.dtd">
<svg version="1.1" id="Layer_1" xmlns="http://www.w3.org/2000/svg" xmlns:xlink="http://www.w3.org/1999/xlink" x="0px" y="0px"
	 width="140.14px" height="223.847px" viewBox="0 0 140.14 223.847" enable-background="new 0 0 140.14 223.847"
	 xml:space="preserve">
<g>
	<defs>
		<rect id="SVGID_1_" x="0" width="140.14" height="223.847"/>
	</defs>
	<clipPath id="SVGID_2_">
		<use xlink:href="#SVGID_1_"  overflow="visible"/>
	</clipPath>
	<path clip-path="url(#SVGID_2_)" fill="#DCE1EA" d="M139.494,7.353c-0.563-4.589-4.741-7.853-9.33-7.29
		c-1.646,0.203-3.193,0.889-4.448,1.972L2.935,105.282c-3.516,3.003-3.932,8.288-0.928,11.804c0.284,0.333,0.595,0.644,0.928,0.928
		l122.781,103.247c3.195,3.342,8.496,3.461,11.838,0.266c3.342-3.194,3.461-8.495,0.264-11.837c-0.416-0.436-0.877-0.824-1.377-1.16
		L21.247,111.646L136.44,14.765C138.651,12.974,139.802,10.182,139.494,7.353"/>
</g>
</svg>
