<?xml version="1.0" encoding="utf-8"?>
<!-- Generator: Adobe Illustrator 16.0.0, SVG Export Plug-In . SVG Version: 6.00 Build 0)  -->
<!DOCTYPE svg PUBLIC "-//W3C//DTD SVG 1.1//EN" "http://www.w3.org/Graphics/SVG/1.1/DTD/svg11.dtd">
<svg version="1.1" id="Layer_1" xmlns="http://www.w3.org/2000/svg" xmlns:xlink="http://www.w3.org/1999/xlink" x="0px" y="0px"
	 width="74.325px" height="73.925px" viewBox="0 0 74.325 73.925" enable-background="new 0 0 74.325 73.925" xml:space="preserve">
<g>
	<defs>
		<rect id="SVGID_1_" width="74.325" height="73.925"/>
	</defs>
	<clipPath id="SVGID_2_">
		<use xlink:href="#SVGID_1_"  overflow="visible"/>
	</clipPath>
	<path clip-path="url(#SVGID_2_)" fill="#FFFFFF" d="M70.199,23.925c5.5-5.5,5.5-14.3,0-19.8s-14.3-5.5-19.8,0l-2.599,2.6
		l19.799,19.8L70.199,23.925z"/>
	
		<rect x="3.414" y="26.76" transform="matrix(-0.7071 0.7071 -0.7071 -0.7071 86.119 45.8481)" clip-path="url(#SVGID_2_)" fill="#FFFFFF" width="60.299" height="28"/>
	<path clip-path="url(#SVGID_2_)" fill="#FFFFFF" d="M0.3,56.124L0,68.624c0,1.302,0.5,2.602,1.4,3.5c0.9,0.9,2.1,1.5,3.4,1.5
		L18,73.926h0.1h0.3l-18-18.102C0.4,55.926,0.3,56.024,0.3,56.124"/>
</g>
</svg>
