<svg xmlns="http://www.w3.org/2000/svg" viewBox="603 369 373 227.6">
  <defs>
    <style>
      .cls-1 {
        fill: #dce1ea;
      }

      .cls-2 {
        fill: #fff;
      }

      .cls-3 {
        fill: #0e0e1e;
      }

      .cls-4 {
        fill: #fbe3d2;
      }

      .cls-5 {
        fill: #5dc3f0;
      }

      .cls-6 {
        fill: #d83939;
      }
    </style>
  </defs>
  <g id="Group_2" data-name="Group 2" transform="translate(603 369)">
    <g id="Group_1" data-name="Group 1">
      <path id="Path_1" data-name="Path 1" class="cls-1" d="M345.9,169.6c-9.9-4-24-9-34.4-13-9.5-3.7-69.6-3.1-80.5,1.1-10,3.8-22,8.4-31.6,11.9C179.3,177,175.3,194,175.3,194v33.4l197.7.2s-3-33-7-42C362.1,176.8,355.5,173.4,345.9,169.6Z"/>
      <path id="Path_2" data-name="Path 2" class="cls-2" d="M296,147.6c-2.2-6.7-2.4-26.3-2.4-26.3H251.7s-.1,19.5-2.4,26.3c-2.2,6.7-8.1,6.2-15.2,8.9,5,7.6,17,21.2,38.5,20.4,21.5.8,33.5-12.8,38.5-20.4C304.1,153.8,298.2,154.4,296,147.6Z"/>
      <path id="Path_3" data-name="Path 3" class="cls-2" d="M223.4,64.9c-5.7,4.3-.8,15.1.2,20,1.5,7.1.4,15.2,10.6,14.6,4.6-8.2,5.4-16.1,1.9-24.7-1.8-4.5-4.7-13.5-11-10.9C224.4,64.3,223.9,64.6,223.4,64.9Z"/>
      <path id="Path_4" data-name="Path 4" class="cls-2" d="M321.3,64.9c5.7,4.3.8,15.1-.2,20-1.5,7.1-.4,15.2-10.6,14.6-4.6-8.2-5.4-16.1-1.9-24.7,1.8-4.5,4.7-13.5,11-10.9C320.2,64.3,320.8,64.6,321.3,64.9Z"/>
      <path id="Path_5" data-name="Path 5" class="cls-2" d="M312.9,70.7c-2-16.1-8.7-48.2-8.7-48.2l-31.4,6.9-31.4-6.9s-6.7,32.1-8.7,48.2-5.7,33.8,10.4,56.4c12.3,17.3,25.6,15.4,29.8,15,4.2.4,17.5,2.3,29.8-15C318.6,104.5,314.9,86.8,312.9,70.7Z"/>
      <path id="Path_6" data-name="Path 6" class="cls-3" d="M289.5,10.1s-36.4-8.3-51.2,0c-14.9,8.3-17.6,48.4-7.5,67l33.4-49.5Z"/>
      <path id="Path_7" data-name="Path 7" class="cls-3" d="M304.6,17.3s20.5,15.1,8.3,53.4l-14-44.6Z"/>
      <path id="Path_8" data-name="Path 8" class="cls-3" d="M246.4,44.7c-.6-6.9-.7-18.9,4.8-22.2,15.5-9.3,25.4,2,47.7-20.7,0,0,18.1,16.5,7.4,30.9-14.6,19.7-39.2,9.3-59.2,16.9A26.56,26.56,0,0,1,246.4,44.7Z"/>
    </g>
    <ellipse id="Ellipse_1" data-name="Ellipse 1" class="cls-3" cx="59.6" cy="63.8" rx="59.6" ry="63.8" transform="translate(39.7 0)"/>
    <path id="Path_9" data-name="Path 9" class="cls-2" d="M176.7,185.6c0-9-7.2-12.2-13.1-13.5s-10.4-.7-16.6-2.1a78.242,78.242,0,0,1-20.3-7.8c-14.3-8-16.3-18.7-15.2-34.5H88.1c1.1,15.8-.9,26.5-15.2,34.5A78.242,78.242,0,0,1,52.6,170c-6.2,1.4-10.7.8-16.6,2.1s-13.1,4.5-13.1,13.5a337.493,337.493,0,0,1-1.9,34l78.9,3,78.9-3A279.98,279.98,0,0,1,176.7,185.6Z"/>
    <path id="Path_10" data-name="Path 10" class="cls-2" d="M126.7,162.2c-14.3-8-16.3-18.7-15.2-34.5H88.1c1.1,15.8-.9,26.5-15.2,34.5-.3.2-.6.3-.9.5,9.7,28.3,27.8,17.1,27.8,17.1S118,191,127.6,162.7A4.054,4.054,0,0,0,126.7,162.2Z"/>
    <path id="Path_11" data-name="Path 11" class="cls-4" d="M52.6,69c-5.5,4.2-.8,14.6.2,19.4,1.5,6.9.3,14.7,10.2,14.2,4.5-8,5.2-15.7,1.8-24C63,74.3,60.2,65.5,54.1,68.1A4.617,4.617,0,0,0,52.6,69Z"/>
    <path id="Path_12" data-name="Path 12" class="cls-5" d="M71.5,162.7"/>
    <path id="Path_13" data-name="Path 13" class="cls-6" d="M189,184.6c-3.1-8.9-9-14.4-16-15.4-9.4-1.3-41.1-5.8-48.4-9.9-1.5-.8-2.8-1.7-4.1-2.5,0,0-3,35.5-21.7,46-18.7-10.6-21.7-44-21.7-44a50.188,50.188,0,0,1-5.1,3.4c-7.3,4.1-41.1,5.1-47.9,6.6S7.2,174.3,5,184.5c-4,19-5,43-5,43H197C196.7,225.6,191.4,191.5,189,184.6Z"/>
    <path id="Path_14" data-name="Path 14" class="cls-3" d="M141.1,97.9s20.4,21.9,6.9,50.7a460.888,460.888,0,0,0-22.1,58.2s-15.4-21.9-14.3-42.5,13.2-45.4,13.2-45.4Z"/>
    <path id="Path_15" data-name="Path 15" class="cls-2" d="M147.1,69c5.5,4.2.8,14.6-.2,19.4-1.5,6.9-.3,14.7-10.2,14.2-4.5-8-5.2-15.7-1.8-24,1.8-4.3,4.6-13.1,10.7-10.5A5.968,5.968,0,0,1,147.1,69Z"/>
    <path id="Path_16" data-name="Path 16" class="cls-2" d="M138.8,75.7c-1.9-15.6-8.4-34.1-8.4-34.1L99.9,48.3,69.4,41.6S62.9,60.1,61,75.7s-2.6,27.9,13,49.8c11.9,16.7,21.9,17.8,26,17.4,4.1.4,14.1-.7,26-17.4C141.4,103.6,140.7,91.3,138.8,75.7Z"/>
    <path id="Path_17" data-name="Path 17" class="cls-3" d="M132.4,41.6C132.3,41.7,97.1,71,69,85c-10,5-11.1,22.2-5.1,29.2C53.5,101.9,43.6,90,47.2,72.8,50.9,55.2,60,38.7,75.5,28.7c8.7-5.6,26.9-12.6,37.2-9.6C116.6,20.3,137.5,37.4,132.4,41.6Z"/>
  </g>
</svg>
