<?xml version="1.0" encoding="utf-8"?>
<!-- Generator: Adobe Illustrator 19.0.0, SVG Export Plug-In . SVG Version: 6.00 Build 0)  -->
<svg version="1.1" id="Layer_1" xmlns="http://www.w3.org/2000/svg" xmlns:xlink="http://www.w3.org/1999/xlink" x="0px" y="0px"
	 viewBox="0 0 205.6 247.1" style="enable-background:new 0 0 205.6 247.1;" xml:space="preserve">
<style type="text/css">
	.st0{clip-path:url(#SVGID_2_);fill:#CDD1E0;}
	.st1{clip-path:url(#SVGID_2_);fill:#D43726;}
	.st2{clip-path:url(#SVGID_2_);fill:#FF4D4D;}
	.st3{clip-path:url(#SVGID_2_);fill:#FF9F9F;}
	.st4{clip-path:url(#SVGID_2_);fill:#E03D3D;}
	.st5{clip-path:url(#SVGID_2_);}
	.st6{clip-path:url(#SVGID_4_);enable-background:new    ;}
	.st7{clip-path:url(#SVGID_6_);fill:#C0C0CE;}
	.st8{clip-path:url(#SVGID_6_);fill:#CDD1E0;}
	.st9{clip-path:url(#SVGID_6_);}
	.st10{clip-path:url(#SVGID_8_);fill:#F8F9FB;}
	.st11{clip-path:url(#SVGID_2_);fill:#FFFFFF;}
</style>
<g>
	<defs>
		<rect id="SVGID_1_" width="205.6" height="247.1"/>
	</defs>
	<clipPath id="SVGID_2_">
		<use xlink:href="#SVGID_1_"  style="overflow:visible;"/>
	</clipPath>
	<path class="st0" d="M186.7,139.2c24.9,14.4,24.9,37.6,0.3,51.9l-78.4,45.2c-24.7,14.3-64.8,14.4-89.7,0
		c-24.8-14.3-24.9-37.6-0.3-51.9L97,139.2C121.6,124.8,161.9,124.8,186.7,139.2"/>
	<path class="st1" d="M68.2,148.6c-0.1,5,0.3,11.2,5,21.1c-3.4-6.9-5.4-14.3-5.5-21.1C68,148.6,68.1,148.6,68.2,148.6"/>
	<path class="st1" d="M119,194.3c-0.3,0.4-0.8,0.9-1.2,1.2C118.2,195.2,118.6,194.8,119,194.3"/>
	<path class="st2" d="M130.5,0c-6,0-11.3,1.5-14.1,2.3c-3.9,1.1-7.3,2.9-10.7,4.7h0c0,0,0,0,0,0c0,0,0,0,0,0v0
		c-11.8,6.8-20.5,16.3-34.4,37.7c4.4-6.8,12-8.6,20.7-3.5c8.6-13.4,19.8-25,32-32.1c12.5-7.2,24-7.3,32.7-2.3C148,2,140.2,0,130.5,0
		"/>
	<path class="st3" d="M156.7,6.9c-8.7-5.1-20.2-5-32.7,2.3c-12.2,7-23.4,18.6-32,32.1l6.1,3.6c8.6-13.5,19.8-25,32-32.1
		c12.5-7.2,24-7.3,32.7-2.3L156.7,6.9z"/>
	<path class="st2" d="M185.9,37.4c-1.4-3.7-4.3-9.5-10.2-16.4c-4.5-5.2-9.7-8.5-12.9-10.5c-8.7-5.1-20.2-5-32.7,2.3
		c-12.2,7-23.4,18.6-32,32.1c-8.6-3.5-19.8-2.2-32,4.9C39,65.4,17,108.8,17.1,140.1c0.1,20.4,11.1,33.3,25,41.3
		c5.8,3.2,14.5,8,31,12.3c17.2,4.4,33.2,4.9,36.2,4.9c3.3,0,6.2-1,8.5-3c0.4-0.4,1-1,1.6-1.7c-0.1,0.1-0.2,0.2-0.2,0.3
		c6-7.2,58.7-71.8,69.3-116.1C193.4,57.1,188,42.8,185.9,37.4"/>
	<path class="st4" d="M123,180.7c-4.8-0.6-60.2-5.8-59.1-39.2c-0.1-18.6,13.3-44.3,26.8-51.9c6.7-3.9,12.8-4.6,32,3.3
		c19.2-30.1,25.3-36.4,32-40.2c13.6-8.2,27,2.2,27.1,20.8C183.2,104.8,127.8,174.5,123,180.7"/>
	<path class="st2" d="M35.9,177.9c-3-1.9-7-4.3-9.8-6.6c-5.2-4.1-5.7-4.7-10.5-9.8c-5.4-5.6-9.1-13.2-10.5-16
		c-2.4-4.8-4.3-12.4-4.7-16.8c-0.9-8.8-0.1-14.7,0.9-20.9C3.9,91.1,13.8,71.7,21.7,62c5.3-6.5,16.2-19.9,36.8-24.6
		c5.9-1.3,17.7-2.8,30.5,2.3c1,0.4,2,0.9,3.1,1.5c-8.6-3.5-19.8-2.2-32,4.9c-27.2,15.7-49.2,59.2-49.1,90.4
		C11,156.9,22,169.8,35.9,177.9"/>
	<path class="st3" d="M42.1,181.4l-6.1-3.6c-13.9-8.1-25-20.9-25-41.4C10.8,105.3,32.8,61.8,60,46.1c12.2-7.1,23.4-8.4,32-4.9
		l6.1,3.6c-8.6-3.5-19.8-2.2-32,4.9C39,65.4,17,108.8,17.1,140.1C17.1,160.5,28.1,173.3,42.1,181.4"/>
	<g class="st5">
		<g>
			<defs>
				<rect id="SVGID_3_" x="30.1" y="73.2" width="175.5" height="111.1"/>
			</defs>
			<clipPath id="SVGID_4_">
				<use xlink:href="#SVGID_3_"  style="overflow:visible;"/>
			</clipPath>
			<g class="st6">
				<g>
					<defs>
						<rect id="SVGID_5_" x="30.1" y="73.2" width="175.5" height="111.1"/>
					</defs>
					<clipPath id="SVGID_6_">
						<use xlink:href="#SVGID_5_"  style="overflow:visible;"/>
					</clipPath>
					<polygon class="st7" points="130.7,143.3 122.4,138.4 128.2,113.1 136.5,117.9 					"/>
					<polygon class="st8" points="136.5,117.9 128.2,113.1 197.2,73.2 205.6,78.1 					"/>
					<polygon class="st7" points="130.3,179.1 122,174.2 105.4,113.7 113.7,118.5 					"/>
					<polygon class="st8" points="102.2,137.8 93.9,132.9 105.1,75.2 113.4,80.1 					"/>
					<polygon class="st8" points="38.4,174.6 30.1,169.8 93.9,132.9 102.2,137.8 					"/>
					<polygon class="st7" points="38.4,184.4 30.1,179.6 30.1,169.8 38.4,174.6 					"/>
					<g class="st9">
						<g>
							<defs>
								<rect id="SVGID_7_" x="38.4" y="78.1" width="167.2" height="106.3"/>
							</defs>
							<clipPath id="SVGID_8_">
								<use xlink:href="#SVGID_7_"  style="overflow:visible;"/>
							</clipPath>
							<polygon class="st10" points="113.4,80.1 130.7,143.3 136.5,117.9 205.6,78.1 205.6,87.9 142.8,124.1 130.3,179.1 
								113.7,118.5 108.8,143.7 38.4,184.4 38.4,174.6 102.2,137.8 							"/>
						</g>
					</g>
				</g>
			</g>
		</g>
	</g>
	<path class="st11" d="M16.9,86.5c0-7.3,5.9-13.2,13.2-13.2c7.3,0,13.2,5.9,13.2,13.2c0,7.3-5.9,13.2-13.2,13.2
		C22.8,99.7,16.9,93.7,16.9,86.5"/>
</g>
</svg>
