<?xml version="1.0" encoding="utf-8"?>
<!-- Generator: Adobe Illustrator 19.0.0, SVG Export Plug-In . SVG Version: 6.00 Build 0)  -->
<svg version="1.1" id="Layer_1" xmlns="http://www.w3.org/2000/svg" xmlns:xlink="http://www.w3.org/1999/xlink" x="0px" y="0px"
	 viewBox="0 0 811.3 560.3" style="enable-background:new 0 0 811.3 560.3;" xml:space="preserve">
<style type="text/css">
	.st0{clip-path:url(#SVGID_2_);fill:#CDD1E0;}
	.st1{clip-path:url(#SVGID_2_);fill:#002F70;}
	.st2{clip-path:url(#SVGID_2_);fill:#CC2323;}
	.st3{clip-path:url(#SVGID_2_);fill:#FF4D4D;}
	.st4{clip-path:url(#SVGID_2_);fill:#B52424;}
	.st5{clip-path:url(#SVGID_2_);fill:#CC2E2E;}
	.st6{clip-path:url(#SVGID_2_);fill:#ED3E3E;}
	.st7{clip-path:url(#SVGID_2_);fill:#F4C9C9;}
	.st8{clip-path:url(#SVGID_4_);fill:#174B76;}
	.st9{clip-path:url(#SVGID_6_);fill:#FFDCDC;}
	.st10{clip-path:url(#SVGID_6_);fill:#8C24B5;}
	.st11{clip-path:url(#SVGID_8_);fill:#F79C9C;}
	.st12{clip-path:url(#SVGID_10_);fill:#FFB8B8;}
	.st13{clip-path:url(#SVGID_10_);fill:#9D8D2A;}
	.st14{clip-path:url(#SVGID_10_);fill:#FF8A8A;}
	.st15{clip-path:url(#SVGID_10_);fill:#FF9F9F;}
	.st16{clip-path:url(#SVGID_10_);fill:#EF4B4B;}
	.st17{clip-path:url(#SVGID_10_);fill:#FC6565;}
</style>
<g>
	<defs>
		<rect id="SVGID_1_" width="811.3" height="560.3"/>
	</defs>
	<clipPath id="SVGID_2_">
		<use xlink:href="#SVGID_1_"  style="overflow:visible;"/>
	</clipPath>
	<path class="st0" d="M527.7,255.7c13,7.5,23.5,16,31.5,25l213.1-54.9c-19.4-23.6-45.9-45.7-79.7-65.2
		c-156.2-90.2-408.1-91.4-567-3.7l165,95.3C358.3,217,462.5,218.1,527.7,255.7"/>
	<path class="st0" d="M277.4,259.7l-165-95.3c-46.1,27.9-78.1,60.6-95.8,95.3L241.9,295C249.2,282.3,261,270.3,277.4,259.7"/>
	<path class="st0" d="M527.7,396.6c-20.9,12.1-45.8,20.4-72.3,25l55,130.9c66.7-10.3,129.8-30.4,182.1-60.6c24-13.8,44.2-29,60.9-45
		l-202.8-66.7C544.2,385.9,536.5,391.5,527.7,396.6"/>
	<path class="st0" d="M559.9,370.7l202.8,66.7c58.4-62.5,64.1-137,17.1-201.8l-213.1,54.9C583.9,316.5,581.6,345.7,559.9,370.7"/>
	<path class="st0" d="M283.7,396.6c-8.1-4.7-15.2-9.8-21.4-15.1L61.6,450.2c16,14.8,35,28.7,57.2,41.6
		c101.4,58.5,243.1,79.5,373.5,63.2l-55.1-130.9C383.3,429.9,325.4,420.7,283.7,396.6"/>
	<path class="st0" d="M237,305.4L11.7,270.2C-12.6,327.3,1,388.6,52.1,441l200.6-68.7C233.9,351.6,228.8,327.8,237,305.4"/>
	<polygon class="st1" points="621.2,62.8 614,182.8 391.5,319.9 398.7,199.8 	"/>
	<polygon class="st2" points="398.7,199.8 391.5,319.9 221,143.6 228.2,23.6 	"/>
	<path class="st3" d="M613.4,58.1c2.7,1.5,5.3,3.1,7.8,4.7L398.7,199.8L228.2,23.6C346.7-16.8,503.5-5.3,613.4,58.1"/>
	<path class="st4" d="M715.7,347c0.1-0.4,0.1-0.8,0.2-1.3c0.1-0.7,0.1-1.4,0.2-2.1c0-0.3,0.1-0.7,0.1-1.1c0.1-1,0.2-2.1,0.2-3.1
		l8.6-144c-0.1,1-0.1,2.1-0.2,3.1c0,0.4-0.1,0.7-0.1,1.1c-0.1,0.7-0.1,1.4-0.2,2.1c0,0.4-0.1,0.8-0.2,1.3c-0.1,0.6-0.2,1.3-0.2,1.9
		c-0.1,0.4-0.1,0.9-0.2,1.3c-0.1,0.6-0.2,1.2-0.3,1.8c-0.1,0.4-0.1,0.8-0.2,1.2c-0.1,0.6-0.2,1.3-0.3,1.9c-0.1,0.4-0.2,0.8-0.2,1.2
		c-0.1,0.6-0.2,1.2-0.4,1.8c-0.1,0.4-0.2,0.8-0.3,1.2c-0.1,0.6-0.3,1.2-0.4,1.9c-0.1,0.4-0.2,0.8-0.3,1.2c-0.2,0.7-0.3,1.3-0.5,2
		c-0.1,0.3-0.2,0.7-0.3,1c-0.2,0.9-0.5,1.7-0.8,2.6c0,0.1-0.1,0.3-0.1,0.4c-0.3,1-0.6,2-1,3c-0.1,0.3-0.2,0.6-0.3,0.9
		c-0.2,0.7-0.5,1.4-0.7,2.1c-0.1,0.4-0.3,0.8-0.4,1.2c-0.2,0.6-0.4,1.2-0.7,1.8c-0.2,0.4-0.3,0.8-0.5,1.2c-0.2,0.6-0.5,1.2-0.7,1.8
		c-0.2,0.4-0.4,0.8-0.5,1.3c-0.2,0.6-0.5,1.2-0.8,1.7c-0.2,0.4-0.4,0.8-0.6,1.2c-0.3,0.6-0.5,1.2-0.8,1.8c-0.2,0.4-0.4,0.8-0.6,1.2
		c-0.3,0.6-0.6,1.2-0.9,1.8c-0.2,0.4-0.4,0.7-0.6,1.1c-0.4,0.7-0.7,1.4-1.1,2.1c-0.2,0.3-0.3,0.6-0.5,0.9c-0.5,1-1.1,1.9-1.6,2.9
		c-0.2,0.4-0.5,0.8-0.7,1.2c-0.4,0.6-0.7,1.2-1.1,1.8c-0.3,0.4-0.5,0.8-0.8,1.3c-0.4,0.6-0.7,1.2-1.1,1.7c-0.3,0.4-0.6,0.9-0.9,1.3
		c-0.4,0.6-0.7,1.1-1.1,1.7c-0.3,0.5-0.6,0.9-0.9,1.3c-0.4,0.5-0.7,1.1-1.1,1.6c-0.3,0.5-0.6,0.9-1,1.4c-0.4,0.5-0.8,1.1-1.1,1.6
		c-0.3,0.5-0.7,0.9-1,1.4c-0.4,0.5-0.8,1-1.2,1.6c-0.4,0.5-0.7,0.9-1.1,1.4c-0.4,0.5-0.8,1-1.2,1.5c-0.4,0.5-0.7,0.9-1.1,1.4
		c-0.4,0.5-0.9,1-1.3,1.6c-0.2,0.2-0.4,0.5-0.6,0.7c-0.5,0.6-1.1,1.3-1.7,1.9c-0.3,0.3-0.5,0.6-0.8,0.9c-0.6,0.6-1.2,1.3-1.8,1.9
		c-0.2,0.2-0.4,0.5-0.6,0.7c-0.8,0.9-1.6,1.7-2.4,2.6c-0.2,0.2-0.3,0.3-0.5,0.5c-0.7,0.7-1.3,1.4-2,2.1c-0.3,0.3-0.5,0.5-0.8,0.8
		c-0.6,0.6-1.2,1.2-1.9,1.8c-0.3,0.3-0.5,0.5-0.8,0.8c-0.9,0.8-1.8,1.7-2.7,2.5l-8.6,144c0.9-0.8,1.8-1.7,2.7-2.5
		c0.3-0.3,0.5-0.5,0.8-0.8c0.6-0.6,1.2-1.2,1.9-1.8c0.3-0.3,0.5-0.5,0.8-0.8c0.7-0.7,1.4-1.4,2-2.1c0.2-0.2,0.3-0.3,0.5-0.5
		c0.8-0.9,1.6-1.7,2.4-2.6c0.2-0.2,0.4-0.5,0.6-0.7c0.6-0.6,1.2-1.3,1.8-1.9c0.3-0.3,0.5-0.6,0.8-0.9c0.6-0.6,1.1-1.3,1.7-1.9
		c0.2-0.2,0.4-0.5,0.6-0.7c0.1-0.1,0.2-0.2,0.2-0.3c0.4-0.4,0.7-0.9,1.1-1.3c0.4-0.5,0.8-0.9,1.1-1.4c0.4-0.5,0.8-1,1.2-1.5
		c0.4-0.5,0.7-0.9,1.1-1.4c0.4-0.5,0.8-1,1.2-1.6c0.3-0.5,0.7-0.9,1-1.4c0.4-0.5,0.8-1.1,1.2-1.6c0.3-0.5,0.7-0.9,1-1.4
		c0.4-0.5,0.7-1.1,1.1-1.6c0.3-0.4,0.6-0.9,0.9-1.3c0.4-0.6,0.7-1.1,1.1-1.7c0.3-0.4,0.6-0.9,0.9-1.3c0.4-0.6,0.7-1.2,1.1-1.7
		c0.3-0.4,0.5-0.8,0.8-1.3c0.4-0.6,0.7-1.2,1.1-1.9c0.2-0.4,0.5-0.8,0.7-1.2c0,0,0,0,0,0c0.5-1,1.1-1.9,1.6-2.9
		c0.2-0.3,0.3-0.6,0.5-0.9c0.4-0.7,0.7-1.4,1.1-2.1c0.2-0.4,0.4-0.7,0.6-1.1c0.3-0.6,0.6-1.2,0.9-1.8c0.2-0.4,0.4-0.8,0.6-1.2
		c0.3-0.6,0.5-1.2,0.8-1.8c0.2-0.4,0.4-0.8,0.6-1.3c0.3-0.6,0.5-1.2,0.8-1.7c0.2-0.4,0.4-0.8,0.5-1.3c0.2-0.6,0.5-1.2,0.7-1.8
		c0.2-0.4,0.3-0.8,0.5-1.2c0.2-0.6,0.5-1.2,0.7-1.8c0.1-0.4,0.3-0.8,0.4-1.2c0-0.1,0.1-0.2,0.1-0.4c0.2-0.6,0.4-1.1,0.6-1.7
		c0.1-0.3,0.2-0.6,0.3-0.9c0.3-1,0.6-2,1-3c0-0.1,0.1-0.3,0.1-0.4c0.3-0.9,0.5-1.7,0.8-2.6c0.1-0.3,0.2-0.7,0.3-1
		c0.2-0.7,0.4-1.3,0.5-2c0.1-0.4,0.2-0.8,0.3-1.2c0.1-0.6,0.3-1.2,0.4-1.8c0.1-0.4,0.2-0.8,0.3-1.2c0.1-0.6,0.3-1.2,0.4-1.8
		c0.1-0.4,0.2-0.8,0.2-1.2c0.1-0.6,0.2-1.2,0.3-1.9c0.1-0.4,0.1-0.8,0.2-1.2c0-0.1,0-0.3,0.1-0.4c0.1-0.5,0.1-0.9,0.2-1.4
		c0.1-0.4,0.1-0.9,0.2-1.3C715.6,348.3,715.6,347.7,715.7,347"/>
	<polygon class="st5" points="674.5,293.2 665.9,437.2 391.6,319.9 400.3,175.9 	"/>
	<path class="st6" d="M622.8,38.8c115,70.6,134.6,177.8,51.8,254.4L400.3,175.9L622.8,38.8z"/>
	<polygon class="st7" points="397.2,223.9 391.5,319.9 66.6,302.8 72.3,206.8 	"/>
</g>
<g>
	<defs>
		<path id="SVGID_3_" d="M66.7,300.3c-0.1,0.8-0.1,1.7-0.1,2.5l5.8-96c0-0.8,0.1-1.7,0.1-2.5L66.7,300.3z"/>
	</defs>
	<clipPath id="SVGID_4_">
		<use xlink:href="#SVGID_3_"  style="overflow:visible;"/>
	</clipPath>
	<path class="st8" d="M72.3,206.8l-5.8,96c0-0.8,0.1-1.7,0.1-2.5l5.8-96C72.4,205.1,72.4,205.9,72.3,206.8"/>
</g>
<g>
	<defs>
		<rect id="SVGID_5_" width="811.3" height="560.3"/>
	</defs>
	<clipPath id="SVGID_6_">
		<use xlink:href="#SVGID_5_"  style="overflow:visible;"/>
	</clipPath>
	<path class="st9" d="M226.7,47.6l170.5,176.3L72.3,206.8c1.8-45.1,28.4-89.2,80.9-123.8C175.1,68.5,199.9,56.7,226.7,47.6"/>
	<polygon class="st10" points="395.1,262.2 391.6,319.8 123.7,422.7 127.1,365.1 	"/>
</g>
<g>
	<defs>
		<path id="SVGID_7_" d="M66.7,302.8c-1.6,41.3,17.6,83.4,56.9,120l3.5-57.6c-39.3-36.6-58.5-78.7-56.9-120L66.7,302.8z"/>
	</defs>
	<clipPath id="SVGID_8_">
		<use xlink:href="#SVGID_7_"  style="overflow:visible;"/>
	</clipPath>
	<path class="st11" d="M127.1,365.1l-3.5,57.6c-39.3-36.6-58.5-78.7-56.9-120l3.5-57.6C68.6,286.4,87.8,328.5,127.1,365.1"/>
</g>
<g>
	<defs>
		<rect id="SVGID_9_" width="811.3" height="560.3"/>
	</defs>
	<clipPath id="SVGID_10_">
		<use xlink:href="#SVGID_9_"  style="overflow:visible;"/>
	</clipPath>
	<path class="st12" d="M70.2,245.1l324.9,17.1l-268,102.9C87.8,328.5,68.6,286.4,70.2,245.1"/>
	<polygon class="st13" points="396.8,233.1 391.6,319.6 332.8,513.6 338,427.1 	"/>
	<path class="st14" d="M334,426.5c-0.5-0.1-1-0.2-1.5-0.2c-1.7-0.3-3.3-0.5-4.9-0.8c-0.3,0-0.6-0.1-0.8-0.1
		c-1.4-0.2-2.7-0.5-4.1-0.7c-0.6-0.1-1.1-0.2-1.7-0.3c-1.1-0.2-2.1-0.4-3.2-0.6c-0.6-0.1-1.3-0.3-1.9-0.4c-1-0.2-2-0.4-3-0.6
		c-0.7-0.1-1.3-0.3-2-0.4c-1-0.2-1.9-0.4-2.9-0.6c-0.7-0.1-1.3-0.3-2-0.4c-1-0.2-2-0.4-2.9-0.6c-0.7-0.1-1.3-0.3-2-0.4
		c-0.9-0.2-1.9-0.4-2.8-0.7c-0.7-0.2-1.5-0.3-2.2-0.5c-0.9-0.2-1.9-0.5-2.8-0.7c-0.7-0.2-1.4-0.3-2.1-0.5c-1-0.2-1.9-0.5-2.9-0.7
		c-0.7-0.2-1.4-0.3-2-0.5c-1.1-0.3-2.1-0.6-3.1-0.8c-0.6-0.2-1.2-0.3-1.8-0.5c-1.3-0.4-2.6-0.7-3.9-1.1c-0.3-0.1-0.7-0.2-1-0.3
		c-1.6-0.5-3.3-0.9-4.9-1.4c-0.4-0.1-0.9-0.3-1.3-0.4c-1.2-0.4-2.4-0.7-3.5-1.1c-0.6-0.2-1.2-0.4-1.8-0.6c-1-0.3-2-0.6-3-0.9
		c-1.6-0.5-3.3-1.1-4.9-1.6c-0.1,0-0.2-0.1-0.3-0.1c-1.8-0.6-3.5-1.2-5.2-1.8c-0.6-0.2-1.1-0.4-1.7-0.6c-1.2-0.4-2.4-0.8-3.5-1.2
		c-0.7-0.2-1.3-0.5-2-0.7c-1.1-0.4-2.1-0.8-3.2-1.2c-0.7-0.3-1.4-0.5-2.1-0.8c-1-0.4-2-0.8-3.1-1.2c-0.7-0.3-1.4-0.6-2.1-0.8
		c-1-0.4-2-0.8-3-1.2c-0.7-0.3-1.4-0.6-2.1-0.8c-1-0.4-2.1-0.9-3.1-1.3c-0.6-0.3-1.3-0.5-1.9-0.8c-1.1-0.5-2.3-1-3.4-1.5
		c-0.5-0.2-1.1-0.5-1.6-0.7c-0.8-0.4-1.7-0.7-2.5-1.1c-0.7-0.3-1.4-0.6-2.2-1c-0.8-0.4-1.7-0.8-2.5-1.2c-0.7-0.3-1.4-0.7-2.1-1
		c-0.8-0.4-1.7-0.8-2.5-1.2c-0.7-0.3-1.4-0.7-2.1-1c-0.8-0.4-1.7-0.8-2.5-1.2c-0.7-0.3-1.4-0.7-2-1c-0.9-0.4-1.7-0.9-2.5-1.3
		c-0.6-0.3-1.3-0.7-1.9-1c-0.9-0.5-1.8-0.9-2.6-1.4c-0.6-0.3-1.2-0.6-1.8-1c-1-0.5-2-1.1-3-1.6c-0.5-0.3-1-0.5-1.4-0.8
		c-1.5-0.8-2.9-1.6-4.4-2.5c-20.6-11.9-38.4-25-53.3-38.8l-5.2,86.4c14.9,13.9,32.7,26.9,53.3,38.8c1.4,0.8,2.9,1.7,4.4,2.5
		c0.5,0.3,0.9,0.5,1.4,0.8c1,0.6,2,1.1,3,1.6c0.6,0.3,1.2,0.6,1.8,0.9c0.9,0.5,1.8,1,2.7,1.4c0.6,0.3,1.3,0.7,1.9,1
		c0.9,0.4,1.7,0.9,2.6,1.3c0.7,0.3,1.3,0.7,2,1c0.8,0.4,1.7,0.8,2.5,1.3c0.7,0.3,1.4,0.7,2.1,1c0.8,0.4,1.7,0.8,2.5,1.2
		c0.7,0.3,1.4,0.7,2.1,1c0.8,0.4,1.7,0.8,2.5,1.2c0.7,0.3,1.4,0.7,2.2,1c0.8,0.4,1.7,0.8,2.5,1.1c0.1,0,0.2,0.1,0.3,0.1
		c0.4,0.2,0.9,0.4,1.3,0.6c1.1,0.5,2.3,1,3.4,1.5c0.6,0.3,1.3,0.5,1.9,0.8c1,0.4,2.1,0.9,3.1,1.3c0.7,0.3,1.4,0.6,2.1,0.8
		c1,0.4,2,0.8,3,1.2c0.7,0.3,1.4,0.6,2.1,0.8c1,0.4,2,0.8,3.1,1.2c0.7,0.3,1.4,0.5,2.1,0.8c1.1,0.4,2.1,0.8,3.2,1.2
		c0.7,0.2,1.3,0.5,2,0.7c1.2,0.4,2.4,0.8,3.5,1.3c0.6,0.2,1.1,0.4,1.7,0.6c1.7,0.6,3.5,1.2,5.2,1.8c0.1,0,0.2,0.1,0.3,0.1
		c1.7,0.5,3.3,1.1,5,1.6c0.1,0,0.2,0.1,0.3,0.1c0.9,0.3,1.8,0.5,2.6,0.8c0.6,0.2,1.2,0.4,1.9,0.6c1.1,0.4,2.3,0.7,3.5,1
		c0.5,0.1,0.9,0.3,1.4,0.4c1.6,0.5,3.3,0.9,4.9,1.4c0.4,0.1,0.8,0.2,1.1,0.3c1.3,0.4,2.5,0.7,3.8,1c0.6,0.2,1.2,0.3,1.8,0.5
		c1,0.3,2.1,0.6,3.1,0.8c0.7,0.2,1.4,0.4,2.1,0.5c1,0.2,1.9,0.5,2.9,0.7c0.7,0.2,1.4,0.4,2.1,0.5c0.9,0.2,1.9,0.5,2.8,0.7
		c0.7,0.2,1.5,0.3,2.2,0.5c0.7,0.2,1.4,0.3,2,0.5c0.3,0.1,0.5,0.1,0.8,0.2c0.6,0.1,1.3,0.3,2,0.4c1,0.2,2,0.4,2.9,0.6
		c0.7,0.1,1.3,0.3,2,0.4c1,0.2,1.9,0.4,2.9,0.6c0.7,0.1,1.3,0.3,2,0.4c1,0.2,2,0.4,3,0.6c0.7,0.1,1.3,0.3,2,0.4
		c1.1,0.2,2.1,0.4,3.2,0.6c0.6,0.1,1.2,0.2,1.7,0.3c1.4,0.2,2.7,0.5,4.1,0.7c0.3,0,0.6,0.1,0.8,0.1c1.6,0.3,3.3,0.6,5,0.8
		c0.5,0.1,1,0.2,1.5,0.2c1,0.2,2,0.3,2.9,0.5c0.3,0.1,0.7,0.1,1,0.2l5.2-86.4C336.6,426.9,335.3,426.7,334,426.5"/>
	<path class="st15" d="M396.8,233.1l-58.8,194c-56-8.4-110-25.8-155.9-52.3c-20.6-11.9-38.4-25-53.3-38.8L396.8,233.1z"/>
	<path class="st16" d="M658.5,443.8c0.4-0.3,0.7-0.6,1.1-0.9c0.8-0.6,1.5-1.3,2.2-1.9c0.3-0.3,0.7-0.6,1-0.9c1-0.9,2.1-1.9,3.1-2.8
		l0,0l6.3-105.6c-1,0.9-2,1.9-3.1,2.8c-0.3,0.3-0.7,0.6-1,0.9c-0.7,0.7-1.5,1.3-2.2,1.9c-0.4,0.3-0.7,0.6-1.1,0.9
		c-0.8,0.7-1.6,1.3-2.4,2c-0.3,0.3-0.6,0.5-1,0.8c-1,0.8-2.1,1.7-3.2,2.5c-0.2,0.2-0.4,0.3-0.7,0.5c-1.1,0.9-2.3,1.7-3.4,2.6
		c0,0-0.1,0.1-0.1,0.1c-1.1,0.8-2.3,1.7-3.4,2.5c-0.2,0.2-0.4,0.3-0.7,0.5c-1.2,0.8-2.3,1.7-3.5,2.5c-0.2,0.2-0.5,0.3-0.7,0.5
		c-1.2,0.8-2.5,1.7-3.7,2.5c-1.2,0.8-2.4,1.6-3.6,2.3c-0.4,0.3-0.8,0.5-1.2,0.8c-0.8,0.5-1.6,1-2.4,1.5c-0.5,0.3-1,0.6-1.5,0.9
		c-0.7,0.5-1.5,0.9-2.2,1.4c-0.5,0.3-1.1,0.6-1.6,0.9c-0.7,0.4-1.4,0.8-2.2,1.3c-0.6,0.3-1.1,0.6-1.7,1c-0.7,0.4-1.4,0.8-2.1,1.2
		c-0.6,0.3-1.2,0.6-1.7,1c-0.7,0.4-1.4,0.8-2.1,1.2c-0.6,0.3-1.2,0.6-1.8,0.9c-0.7,0.4-1.4,0.7-2.1,1.1c-0.6,0.3-1.2,0.6-1.8,0.9
		c-0.7,0.4-1.4,0.7-2.1,1.1c-0.6,0.3-1.2,0.6-1.8,0.9c-0.7,0.4-1.4,0.7-2.2,1c-0.6,0.3-1.3,0.6-1.9,0.9c-0.7,0.3-1.4,0.7-2.2,1
		c-0.6,0.3-1.3,0.6-1.9,0.9c-0.7,0.3-1.5,0.7-2.2,1c-0.6,0.3-1.3,0.6-1.9,0.9c-0.7,0.3-1.5,0.6-2.2,1c-0.6,0.3-1.3,0.6-1.9,0.8
		c-0.7,0.3-1.5,0.6-2.2,0.9c-0.7,0.3-1.3,0.5-2,0.8c-0.8,0.3-1.5,0.6-2.3,0.9c-0.7,0.3-1.3,0.5-2,0.8c-0.8,0.3-1.5,0.6-2.3,0.9
		c-0.7,0.3-1.3,0.5-2,0.8c-0.8,0.3-1.6,0.6-2.4,0.9c-0.7,0.2-1.3,0.5-2,0.7c-0.8,0.3-1.6,0.6-2.4,0.9c-0.7,0.2-1.3,0.5-2,0.7
		c-0.8,0.3-1.6,0.6-2.5,0.9c-0.6,0.2-1.3,0.4-1.9,0.7c-0.9,0.3-1.7,0.6-2.6,0.9c-0.6,0.2-1.2,0.4-1.9,0.6c-0.9,0.3-1.8,0.6-2.7,0.9
		c-0.6,0.2-1.1,0.4-1.7,0.5c-1,0.3-2.1,0.6-3.1,1c-0.5,0.1-0.9,0.3-1.4,0.4c-1.5,0.4-3,0.9-4.5,1.3c-0.2,0.1-0.5,0.1-0.7,0.2
		c-1.3,0.4-2.6,0.7-3.9,1.1c-0.5,0.1-1.1,0.3-1.6,0.4c-1,0.3-2,0.5-3,0.8c-0.6,0.2-1.2,0.3-1.9,0.5c-0.9,0.2-1.8,0.5-2.7,0.7
		c-0.7,0.2-1.3,0.3-2,0.5c-0.9,0.2-1.8,0.4-2.7,0.6c-0.7,0.2-1.4,0.3-2.1,0.5c-0.9,0.2-1.7,0.4-2.6,0.6c-0.7,0.2-1.4,0.3-2.1,0.5
		c-0.9,0.2-1.7,0.4-2.6,0.6c-0.7,0.2-1.4,0.3-2.2,0.5c-0.9,0.2-1.7,0.4-2.6,0.5c-0.7,0.1-1.4,0.3-2.2,0.4c-0.9,0.2-1.7,0.3-2.6,0.5
		c-0.7,0.1-1.5,0.3-2.2,0.4c-0.8,0.1-1.5,0.3-2.3,0.4c-1.6,0.3-3.2,0.6-4.8,0.9c-0.3,0.1-0.7,0.1-1,0.2c-1.9,0.3-3.9,0.6-5.8,0.9
		c-0.5,0.1-1.1,0.2-1.6,0.2c-1.5,0.2-2.9,0.4-4.4,0.7c-0.6,0.1-1.3,0.2-1.9,0.3c-1.5,0.2-3.1,0.4-4.6,0.6c-0.5,0.1-0.9,0.1-1.4,0.2
		c-2,0.3-3.9,0.5-5.9,0.7c-0.5,0.1-0.9,0.1-1.4,0.2c-1.5,0.2-3.1,0.3-4.6,0.5c-0.6,0.1-1.3,0.1-1.9,0.2c-1.5,0.1-3,0.3-4.5,0.4
		c-0.5,0-1,0.1-1.6,0.1c-2,0.2-4,0.3-6,0.5c-0.7,0.1-1.4,0.1-2.1,0.2c-1,0.1-2,0.1-3,0.2c-0.8,0-1.5,0.1-2.3,0.1
		c-1,0.1-2,0.1-2.9,0.2c-0.8,0-1.5,0.1-2.3,0.1c-1,0-1.9,0.1-2.9,0.1c-0.8,0-1.6,0.1-2.4,0.1c-0.9,0-1.9,0.1-2.8,0.1
		c-0.8,0-1.6,0.1-2.4,0.1c-0.9,0-1.9,0.1-2.8,0.1c-0.8,0-1.6,0-2.4,0.1c-0.9,0-1.9,0-2.8,0c-0.8,0-1.6,0-2.4,0c-0.9,0-1.9,0-2.8,0
		c-0.8,0-1.6,0-2.5,0c-0.9,0-1.9,0-2.8,0c-0.9,0-1.8,0-2.6,0c-0.8,0-1.5,0-2.3,0c-0.9,0-1.8,0-2.8,0c-0.8,0-1.5,0-2.3,0
		c-0.9,0-1.9,0-2.8-0.1c-0.7,0-1.5,0-2.2-0.1c-0.9,0-1.9-0.1-2.8-0.1c-0.7,0-1.5-0.1-2.2-0.1c-1,0-1.9-0.1-2.9-0.1
		c-0.7,0-1.4-0.1-2.1-0.1c-1-0.1-2.1-0.1-3.1-0.2c-0.6,0-1.3-0.1-1.9-0.1c-1.2-0.1-2.4-0.2-3.6-0.2c-0.5,0-0.9-0.1-1.4-0.1
		c-1.7-0.1-3.3-0.2-5-0.4c-0.2,0-0.4,0-0.6-0.1c-1.4-0.1-2.8-0.2-4.2-0.4c-0.6,0-1.1-0.1-1.7-0.2c-1.1-0.1-2.1-0.2-3.2-0.3
		c-0.6-0.1-1.3-0.1-1.9-0.2c-1-0.1-2-0.2-3-0.3c-0.7-0.1-1.3-0.1-2-0.2c-1-0.1-1.9-0.2-2.9-0.3c-0.7-0.1-1.3-0.2-2-0.2
		c-1-0.1-2-0.2-3-0.4c-0.6-0.1-1.2-0.2-1.9-0.2c-1.1-0.1-2.2-0.3-3.2-0.4c-0.5-0.1-1.1-0.1-1.6-0.2c-1.6-0.2-3.2-0.4-4.7-0.7
		c0,0,0,0-0.1,0l-6.3,105.6c1.6,0.2,3.2,0.5,4.8,0.7c0.5,0.1,1.1,0.1,1.6,0.2c1.1,0.1,2.2,0.3,3.2,0.4c0.6,0.1,1.2,0.2,1.9,0.2
		c1,0.1,2,0.3,3,0.4c0.7,0.1,1.3,0.2,2,0.2c1,0.1,1.9,0.2,2.9,0.3c0.7,0.1,1.3,0.1,2,0.2c1,0.1,2,0.2,3,0.3c0.6,0.1,1.3,0.1,1.9,0.2
		c1.1,0.1,2.1,0.2,3.2,0.3c0.6,0.1,1.1,0.1,1.7,0.2c1.4,0.1,2.8,0.2,4.2,0.4c0.2,0,0.4,0,0.6,0.1c0,0,0,0,0.1,0
		c1.6,0.1,3.3,0.3,4.9,0.4c0.5,0,0.9,0.1,1.4,0.1c1.2,0.1,2.4,0.2,3.6,0.2c0.6,0,1.3,0.1,1.9,0.1c1,0.1,2.1,0.1,3.1,0.2
		c0.7,0,1.4,0.1,2.1,0.1c1,0,1.9,0.1,2.9,0.1c0.7,0,1.5,0.1,2.2,0.1c0.9,0,1.9,0.1,2.8,0.1c0.7,0,1.5,0,2.2,0.1
		c0.9,0,1.9,0.1,2.8,0.1c0.8,0,1.5,0,2.3,0c0.9,0,1.8,0,2.7,0c0.8,0,1.5,0,2.3,0c0.5,0,1,0,1.5,0c0.4,0,0.7,0,1.1,0
		c0.9,0,1.9,0,2.8,0c0.8,0,1.6,0,2.4,0c0.9,0,1.9,0,2.8,0c0.8,0,1.6,0,2.4,0c0.9,0,1.9,0,2.8-0.1c0.8,0,1.6,0,2.4-0.1
		c0.9,0,1.9-0.1,2.8-0.1c0.8,0,1.6,0,2.4-0.1c1,0,1.9-0.1,2.9-0.1c0.8,0,1.6-0.1,2.4-0.1c1,0,1.9-0.1,2.9-0.1c0.8,0,1.5-0.1,2.3-0.1
		c1-0.1,2-0.1,2.9-0.2c0.8,0,1.5-0.1,2.3-0.1c1-0.1,2-0.1,3-0.2c0.6,0,1.3-0.1,1.9-0.1c0.1,0,0.1,0,0.2,0c2-0.1,4-0.3,6-0.5
		c0.5,0,1-0.1,1.6-0.1c1.5-0.1,3-0.3,4.5-0.4c0.6-0.1,1.3-0.1,1.9-0.2c1.5-0.2,3.1-0.3,4.6-0.5c0.5-0.1,0.9-0.1,1.4-0.2
		c2-0.2,3.9-0.5,5.9-0.7c0.5-0.1,0.9-0.1,1.4-0.2c1.5-0.2,3.1-0.4,4.6-0.6c0.6-0.1,1.3-0.2,1.9-0.3c1.5-0.2,2.9-0.4,4.4-0.7
		c0.5-0.1,1.1-0.2,1.6-0.2c1.9-0.3,3.9-0.6,5.8-0.9c0.3-0.1,0.7-0.1,1-0.2c1.6-0.3,3.2-0.6,4.8-0.9c0.3,0,0.5-0.1,0.8-0.1
		c0.5-0.1,1-0.2,1.5-0.3c0.7-0.1,1.5-0.3,2.2-0.4c0.9-0.2,1.7-0.3,2.6-0.5c0.7-0.1,1.5-0.3,2.2-0.4c0.9-0.2,1.7-0.4,2.6-0.5
		c0.7-0.2,1.4-0.3,2.2-0.5c0.9-0.2,1.7-0.4,2.6-0.6c0.7-0.2,1.4-0.3,2.1-0.5c0.9-0.2,1.7-0.4,2.6-0.6c0.7-0.2,1.4-0.3,2.1-0.5
		c0.9-0.2,1.8-0.4,2.6-0.6c0.7-0.2,1.3-0.3,2-0.5c0.9-0.2,1.8-0.5,2.7-0.7c0.6-0.2,1.3-0.3,1.9-0.5c1-0.3,2-0.5,2.9-0.8
		c0.5-0.1,1.1-0.3,1.6-0.4c1.3-0.4,2.6-0.7,3.8-1.1c0.2-0.1,0.5-0.1,0.7-0.2c1.5-0.4,3-0.9,4.5-1.3c0.5-0.1,0.9-0.3,1.4-0.4
		c1-0.3,2.1-0.6,3.1-1c0.6-0.2,1.1-0.4,1.7-0.5c0.9-0.3,1.8-0.6,2.7-0.9c0.6-0.2,1.2-0.4,1.8-0.6c0.9-0.3,1.7-0.6,2.6-0.9
		c0.6-0.2,1.3-0.4,1.9-0.7c0.8-0.3,1.6-0.6,2.5-0.9c0.7-0.2,1.3-0.5,2-0.7c0.8-0.3,1.6-0.6,2.4-0.9c0.7-0.2,1.3-0.5,2-0.7
		c0.8-0.3,1.6-0.6,2.4-0.9c0.7-0.3,1.3-0.5,2-0.8c0.8-0.3,1.5-0.6,2.3-0.9c0.7-0.3,1.3-0.5,2-0.8c0.8-0.3,1.5-0.6,2.3-0.9
		c0.7-0.3,1.3-0.5,2-0.8c0.7-0.3,1.5-0.6,2.2-0.9c0.7-0.3,1.3-0.6,1.9-0.8c0.7-0.3,1.5-0.6,2.2-1c0.6-0.3,1.3-0.6,1.9-0.9
		c0.7-0.3,1.5-0.7,2.2-1c0.6-0.3,1.3-0.6,1.9-0.9c0.7-0.3,1.4-0.7,2.2-1c0.6-0.3,1.3-0.6,1.9-0.9c0.7-0.3,1.4-0.7,2.2-1
		c0.6-0.3,1.2-0.6,1.8-0.9c0.7-0.4,1.4-0.7,2.1-1.1c0.6-0.3,1.2-0.6,1.8-0.9c0.7-0.4,1.4-0.7,2.1-1.1c0.6-0.3,1.2-0.6,1.8-0.9
		c0.7-0.4,1.4-0.8,2.1-1.2c0.6-0.3,1.2-0.6,1.7-1c0.7-0.4,1.4-0.8,2.1-1.2c0.6-0.3,1.1-0.6,1.7-1c0.7-0.4,1.4-0.8,2.2-1.3
		c0.5-0.3,1.1-0.6,1.6-0.9c0.7-0.4,1.5-0.9,2.2-1.4c0.5-0.3,1-0.6,1.5-0.9c0.8-0.5,1.6-1,2.4-1.5c0.4-0.3,0.8-0.5,1.2-0.8
		c1.2-0.8,2.4-1.6,3.6-2.3c1.3-0.8,2.5-1.7,3.7-2.5c0.2-0.2,0.5-0.3,0.7-0.5c1.2-0.8,2.4-1.6,3.5-2.5c0.2-0.2,0.4-0.3,0.7-0.5
		c1.2-0.8,2.3-1.7,3.4-2.5c0,0,0.1-0.1,0.1-0.1c1.2-0.9,2.3-1.7,3.4-2.6c0.2-0.2,0.4-0.3,0.7-0.5c0.9-0.7,1.9-1.5,2.8-2.2
		c0.1-0.1,0.2-0.2,0.4-0.3c0.3-0.3,0.7-0.5,1-0.8C656.9,445.1,657.7,444.4,658.5,443.8"/>
	<path class="st17" d="M672.2,331.6c-8.9,8.2-19,16.1-30.2,23.5c-78.2,51.6-194.2,69.4-302.8,53.1l58.8-194L672.2,331.6z"/>
</g>
</svg>
