<?xml version="1.0" encoding="utf-8"?>
<!-- Generator: Adobe Illustrator 16.0.0, SVG Export Plug-In . SVG Version: 6.00 Build 0)  -->
<!DOCTYPE svg PUBLIC "-//W3C//DTD SVG 1.1//EN" "http://www.w3.org/Graphics/SVG/1.1/DTD/svg11.dtd">
<svg version="1.1" id="Layer_1" xmlns="http://www.w3.org/2000/svg" xmlns:xlink="http://www.w3.org/1999/xlink" x="0px" y="0px"
	 width="36px" height="82px" viewBox="0 0 36 82" enable-background="new 0 0 36 82" xml:space="preserve">
<g>
	<defs>
		<rect id="SVGID_1_" width="36" height="82"/>
	</defs>
	<clipPath id="SVGID_2_">
		<use xlink:href="#SVGID_1_"  overflow="visible"/>
	</clipPath>
	<path clip-path="url(#SVGID_2_)" fill="#292935" d="M18,0C8.08,0,0,8.08,0,18v51c0,7.15,5.85,13,13,13c7.15,0,13-5.85,13-13V18
		c0-4.38-3.62-8-8-8s-8,3.62-8,8v44c-0.023,1.657,1.301,3.02,2.958,3.042c1.656,0.023,3.019-1.301,3.042-2.957
		c0-0.028,0-0.057,0-0.085V18c0-1.16,0.84-2,2-2c1.16,0,2,0.84,2,2v51c0,3.93-3.07,7-7,7c-3.93,0-7-3.07-7-7V18c0-6.7,5.3-12,12-12
		c6.7,0,12,5.3,12,12v46c-0.022,1.657,1.301,3.02,2.957,3.042c1.657,0.023,3.021-1.3,3.043-2.957V64V18C36,8.08,27.92,0,18,0"/>
</g>
</svg>
