<?xml version="1.0" encoding="utf-8"?>
<!-- Generator: Adobe Illustrator 19.0.0, SVG Export Plug-In . SVG Version: 6.00 Build 0)  -->
<svg version="1.1" id="Layer_1" xmlns="http://www.w3.org/2000/svg" xmlns:xlink="http://www.w3.org/1999/xlink" x="0px" y="0px"
	 viewBox="0 0 91.6 60.4" style="enable-background:new 0 0 91.6 60.4;" xml:space="preserve">
<style type="text/css">
	.st0{clip-path:url(#SVGID_2_);fill:#FFFFFF;}
</style>
<g>
	<defs>
		<rect id="SVGID_1_" y="0" width="91.6" height="60.4"/>
	</defs>
	<clipPath id="SVGID_2_">
		<use xlink:href="#SVGID_1_"  style="overflow:visible;"/>
	</clipPath>
	<path class="st0" d="M62.6,28.2l-12.7-7.4c-1.1-0.6-2.5-0.3-3.1,0.8c-0.6,1.1-0.3,2.5,0.8,3.1l12.7,7.4c0.4,0.2,0.8,0.3,1.1,0.3
		c0.8,0,1.5-0.4,2-1.1C64,30.2,63.7,28.9,62.6,28.2"/>
	<path class="st0" d="M88.4,14.2c1.2-1.2,1.2-3.2,0-4.4l-6-6c-1.2-1.2-3.2-1.2-4.4,0l-0.7,0.7C72.6,1.6,67.2,0,61.4,0
		S50.2,1.6,45.6,4.5l-0.7-0.7c-1.2-1.2-3.2-1.2-4.4,0l-6,6c-1.2,1.2-1.2,3.2,0,4.4l0.9,0.9c-2.6,4.5-4.1,9.6-4.1,15.1
		c0,16.6,13.5,30.2,30.2,30.2s30.2-13.5,30.2-30.2c0-5.5-1.5-10.7-4.1-15.1L88.4,14.2z M61.4,55.8c-14.1,0-25.6-11.5-25.6-25.6
		S47.3,4.5,61.4,4.5S87.1,16,87.1,30.2S75.6,55.8,61.4,55.8"/>
	<path class="st0" d="M6,16.6h21c1.1,0,2-0.9,2-2s-0.9-2-2-2H6c-1.1,0-2,0.9-2,2S4.9,16.6,6,16.6"/>
	<path class="st0" d="M2,27.2h21c1.1,0,2-0.9,2-2s-0.9-2-2-2H2c-1.1,0-2,0.9-2,2S0.9,27.2,2,27.2"/>
	<path class="st0" d="M2,37.9h21c1.1,0,2-0.9,2-2c0-1.1-0.9-2-2-2H2c-1.1,0-2,0.9-2,2C0,37,0.9,37.9,2,37.9"/>
	<path class="st0" d="M29,46.5c0-1.1-0.9-2-2-2H6c-1.1,0-2,0.9-2,2s0.9,2,2,2h21C28.1,48.5,29,47.7,29,46.5"/>
</g>
</svg>
