<?xml version="1.0" encoding="utf-8"?>
<!-- Generator: Adobe Illustrator 16.0.0, SVG Export Plug-In . SVG Version: 6.00 Build 0)  -->
<!DOCTYPE svg PUBLIC "-//W3C//DTD SVG 1.1//EN" "http://www.w3.org/Graphics/SVG/1.1/DTD/svg11.dtd">
<svg version="1.1" id="Layer_1" xmlns="http://www.w3.org/2000/svg" xmlns:xlink="http://www.w3.org/1999/xlink" x="0px" y="0px"
	 width="31.994px" height="32.002px" viewBox="0 0 31.994 32.002" enable-background="new 0 0 31.994 32.002" xml:space="preserve">
<g>
	<defs>
		<rect id="SVGID_1_" width="31.994" height="32.002"/>
	</defs>
	<clipPath id="SVGID_2_">
		<use xlink:href="#SVGID_1_"  overflow="visible"/>
	</clipPath>
	<path clip-path="url(#SVGID_2_)" fill="#FFFFFF" d="M27.998,11.999C27.998,5.375,22.624,0,15.999,0C9.371,0,4,5.375,4,11.999
		c0,6.629,5.371,11.999,11.999,11.999C22.624,23.998,27.998,18.628,27.998,11.999 M15.999,19.999c-4.417,0-8-3.582-8-8
		C8,7.582,11.582,4,15.999,4c4.418,0,7.999,3.582,7.999,7.999C23.998,16.417,20.417,19.999,15.999,19.999 M21.999,11.999
		c0,3.316-2.688,6-6,6c-3.316,0-6-2.684-6-6c0-3.312,2.683-6,6-6C19.312,6,21.999,8.687,21.999,11.999 M31.994,26H26v6.002
		l-6.469-6.469c2.914-0.763,5.463-2.42,7.311-4.687L31.994,26z M12.464,25.533L6,31.998V26H0l5.152-5.152
		C7.003,23.113,9.551,24.771,12.464,25.533"/>
</g>
</svg>
