<?xml version="1.0" encoding="utf-8"?>
<!-- Generator: Adobe Illustrator 16.0.0, SVG Export Plug-In . SVG Version: 6.00 Build 0)  -->
<!DOCTYPE svg PUBLIC "-//W3C//DTD SVG 1.1//EN" "http://www.w3.org/Graphics/SVG/1.1/DTD/svg11.dtd">
<svg version="1.1" id="Layer_1" xmlns="http://www.w3.org/2000/svg" xmlns:xlink="http://www.w3.org/1999/xlink" x="0px" y="0px"
	 width="489.602px" height="397.695px" viewBox="0 0 489.602 397.695" enable-background="new 0 0 489.602 397.695"
	 xml:space="preserve">
<g>
	<defs>
		<rect id="SVGID_1_" width="489.602" height="397.695"/>
	</defs>
	<clipPath id="SVGID_2_">
		<use xlink:href="#SVGID_1_"  overflow="visible"/>
	</clipPath>
	<path clip-path="url(#SVGID_2_)" fill="#FFFFFF" d="M489.602,47.055c-18.023,7.984-37.355,13.398-57.672,15.816
		c20.742-12.422,36.621-32.125,44.148-55.527c-19.457,11.5-40.938,19.855-63.82,24.383C393.93,12.176,367.863,0,338.953,0
		c-55.469,0-100.44,44.973-100.44,100.41c0,7.864,0.885,15.543,2.6,22.883c-83.461-4.191-157.468-44.176-207-104.937
		c-8.659,14.808-13.586,32.062-13.586,50.48c0,34.848,17.746,65.594,44.668,83.582c-16.457-0.547-31.937-5.078-45.491-12.601v1.253
		c0,48.645,34.632,89.242,80.554,98.481c-8.414,2.266-17.284,3.519-26.465,3.519c-6.483,0-12.757-0.64-18.905-1.867
		c12.788,39.927,49.866,68.961,93.8,69.759c-34.356,26.922-77.68,42.922-124.731,42.922c-8.108,0-16.094-0.489-23.957-1.375
		c44.454,28.543,97.23,45.187,153.954,45.187c184.757,0,285.75-153.035,285.75-285.75l-0.34-13.003
		C459.098,84.867,476.168,67.184,489.602,47.055"/>
</g>
</svg>
