<?xml version="1.0" encoding="utf-8"?>
<!-- Generator: Adobe Illustrator 16.0.0, SVG Export Plug-In . SVG Version: 6.00 Build 0)  -->
<!DOCTYPE svg PUBLIC "-//W3C//DTD SVG 1.1//EN" "http://www.w3.org/Graphics/SVG/1.1/DTD/svg11.dtd">
<svg version="1.1" id="Layer_1" xmlns="http://www.w3.org/2000/svg" xmlns:xlink="http://www.w3.org/1999/xlink" x="0px" y="0px"
	 width="439px" height="439px" viewBox="0 0 439 439" enable-background="new 0 0 439 439" xml:space="preserve">
<g>
	<defs>
		<rect id="SVGID_1_" width="439" height="439"/>
	</defs>
	<clipPath id="SVGID_2_">
		<use xlink:href="#SVGID_1_"  overflow="visible"/>
	</clipPath>
	<path clip-path="url(#SVGID_2_)" fill="#292935" d="M350,0H89C40.05,0,0,40.049,0,89v261c0,48.95,40.05,89,89,89h261
		c48.95,0,89-40.05,89-89V89C439,40.049,398.95,0,350,0 M341.24,156.987l0.213,8.137c0,83.041-63.192,178.798-178.798,178.798
		c-35.493,0-68.516-10.415-96.331-28.275c4.92,0.555,9.916,0.861,14.991,0.861c29.44,0,56.549-10.013,78.046-26.857
		c-27.491-0.499-50.691-18.667-58.693-43.649c3.847,0.769,7.773,1.17,11.83,1.17c5.744,0,11.294-0.785,16.559-2.203
		c-28.734-5.78-50.404-31.184-50.404-61.622v-0.784c8.482,4.707,18.168,7.543,28.465,7.885
		c-16.846-11.255-27.95-30.493-27.95-52.299c0-11.524,3.083-22.32,8.501-31.586c30.993,38.02,77.3,63.038,129.523,65.661
		c-1.073-4.592-1.627-9.397-1.627-14.318c0-34.688,28.139-62.828,62.847-62.828c18.089,0,34.4,7.619,45.868,19.852
		c14.318-2.834,27.759-8.061,39.933-15.256c-4.71,14.642-14.645,26.97-27.624,34.743c12.712-1.513,24.809-4.901,36.086-9.896
		C364.27,137.116,353.589,148.181,341.24,156.987"/>
</g>
</svg>
